sources/vcdMaker/test/functional/test_002.vcd
$date Tue Dec 18 17:57:25 2018
$end
$version VCD Tracer "Nestor" Release v.3.0.2
$end
$timescale 1 us
$end
$scope module FRDM $end
	$scope module Buttons $end
		$var wire 1 FRDM.Buttons.SW1 SW1 $end
		$var wire 1 FRDM.Buttons.SW3 SW3 $end
	$upscope $end
	$scope module Sensors $end
		$scope module Accelerometer $end
			$var real 64 FRDM.Sensors.Accelerometer.AccX AccX $end
			$var real 64 FRDM.Sensors.Accelerometer.AccY AccY $end
			$var real 64 FRDM.Sensors.Accelerometer.AccZ AccZ $end
		$upscope $end
		$var real 64 FRDM.Sensors.Light Light $end
		$scope module Magnetometer $end
			$var wire 32 FRDM.Sensors.Magnetometer.MagX MagX $end
			$var wire 32 FRDM.Sensors.Magnetometer.MagY MagY $end
			$var wire 32 FRDM.Sensors.Magnetometer.MagZ MagZ $end
		$upscope $end
		$var wire 7 FRDM.Sensors.Slider Slider $end
	$upscope $end
$upscope $end
$enddefinitions $end
$dumpvars
bx FRDM.Buttons.SW1
bx FRDM.Buttons.SW3
r0.0 FRDM.Sensors.Accelerometer.AccX
r0.0 FRDM.Sensors.Accelerometer.AccY
r0.0 FRDM.Sensors.Accelerometer.AccZ
r0.0 FRDM.Sensors.Light
bxxxxxxxxxxxxxxxxxxxxxxxxxxxxxxxx FRDM.Sensors.Magnetometer.MagX
bxxxxxxxxxxxxxxxxxxxxxxxxxxxxxxxx FRDM.Sensors.Magnetometer.MagY
bxxxxxxxxxxxxxxxxxxxxxxxxxxxxxxxx FRDM.Sensors.Magnetometer.MagZ
bxxxxxxx FRDM.Sensors.Slider
$end
#66885495
r0.920898 FRDM.Sensors.Accelerometer.AccX
r0.257812 FRDM.Sensors.Accelerometer.AccY
r0.291992 FRDM.Sensors.Accelerometer.AccZ
#66965495
r0.808594 FRDM.Sensors.Accelerometer.AccX
r0.237305 FRDM.Sensors.Accelerometer.AccY
r0.293945 FRDM.Sensors.Accelerometer.AccZ
#67007919
r0.95459 FRDM.Sensors.Accelerometer.AccX
r0.286133 FRDM.Sensors.Accelerometer.AccY
r0.285156 FRDM.Sensors.Accelerometer.AccZ
#67053227
r0.488258 FRDM.Sensors.Light
#67103226
r0.750942 FRDM.Sensors.Light
#67165495
r0.853027 FRDM.Sensors.Accelerometer.AccX
r0.230957 FRDM.Sensors.Accelerometer.AccZ
#67203226
r0.64033 FRDM.Sensors.Light
#67253226
r0.520088 FRDM.Sensors.Light
#67303226
r0.376349 FRDM.Sensors.Light
#67503226
r0.497627 FRDM.Sensors.Light
#67653226
r0.644862 FRDM.Sensors.Light
#67803227
r0.748791 FRDM.Sensors.Light
#68003226
r0.465141 FRDM.Sensors.Light
#68053226
r0.223102 FRDM.Sensors.Light
#68683184
b0000000 FRDM.Sensors.Slider
#68953226
r0.47303 FRDM.Sensors.Light
#68955989
b00000000000000001111110110111010 FRDM.Sensors.Magnetometer.MagX
#68956112
b00000000000000000000001110001001 FRDM.Sensors.Magnetometer.MagY
#68956231
b00000000000000000000101110011111 FRDM.Sensors.Magnetometer.MagZ
#69003225
r0.731655 FRDM.Sensors.Light
#69103226
r0.429664 FRDM.Sensors.Light
#69125493
r0.862305 FRDM.Sensors.Accelerometer.AccX
r0.307129 FRDM.Sensors.Accelerometer.AccY
r0.243164 FRDM.Sensors.Accelerometer.AccZ
#69153226
r0.236774 FRDM.Sensors.Light
#69753226
r0.348501 FRDM.Sensors.Light
#69853226
r0.55198 FRDM.Sensors.Light
#69903226
r0.688655 FRDM.Sensors.Light
#69953226
r0.791226 FRDM.Sensors.Light
#70053225
r0.48333 FRDM.Sensors.Light
#70103226
r0.187915 FRDM.Sensors.Light
#70753226
r0.524895 FRDM.Sensors.Light
#70803226
r0.746777 FRDM.Sensors.Light
#70953226
r0.567834 FRDM.Sensors.Light
#71085492
r0.922852 FRDM.Sensors.Accelerometer.AccX
r0.291992 FRDM.Sensors.Accelerometer.AccY
r0.232422 FRDM.Sensors.Accelerometer.AccZ
#71405583
b00000000000000001111110111000000 FRDM.Sensors.Magnetometer.MagX
#71405705
b00000000000000000000001110001111 FRDM.Sensors.Magnetometer.MagY
#71405825
b00000000000000000000101110101000 FRDM.Sensors.Magnetometer.MagZ
#71453226
r0.676951 FRDM.Sensors.Light
#71603226
r0.834699 FRDM.Sensors.Light
#71703226
r0.480552 FRDM.Sensors.Light
#71753226
r0.15993 FRDM.Sensors.Light
#73044813
r0.873535 FRDM.Sensors.Accelerometer.AccX
r0.242188 FRDM.Sensors.Accelerometer.AccY
r0.214844 FRDM.Sensors.Accelerometer.AccZ
#73125496
r0.910645 FRDM.Sensors.Accelerometer.AccX
r0.233398 FRDM.Sensors.Accelerometer.AccY
r0.36084 FRDM.Sensors.Accelerometer.AccZ
#73365497
r0.917969 FRDM.Sensors.Accelerometer.AccX
r0.258789 FRDM.Sensors.Accelerometer.AccY
r0.260742 FRDM.Sensors.Accelerometer.AccZ
#73407945
r0.817871 FRDM.Sensors.Accelerometer.AccX
r0.223633 FRDM.Sensors.Accelerometer.AccY
r0.353027 FRDM.Sensors.Accelerometer.AccZ
#73485494
r0.9375 FRDM.Sensors.Accelerometer.AccX
r0.239258 FRDM.Sensors.Accelerometer.AccY
r0.34082 FRDM.Sensors.Accelerometer.AccZ
#73525494
r0.782227 FRDM.Sensors.Accelerometer.AccX
r0.217773 FRDM.Sensors.Accelerometer.AccY
r0.413086 FRDM.Sensors.Accelerometer.AccZ
#73607880
r0.901367 FRDM.Sensors.Accelerometer.AccX
r0.291992 FRDM.Sensors.Accelerometer.AccY
r0.356934 FRDM.Sensors.Accelerometer.AccZ
#73644816
r1.19336 FRDM.Sensors.Accelerometer.AccX
r0.114258 FRDM.Sensors.Accelerometer.AccY
r0.589844 FRDM.Sensors.Accelerometer.AccZ
#73685495
r0.759766 FRDM.Sensors.Accelerometer.AccX
r0.26123 FRDM.Sensors.Accelerometer.AccY
r0.335938 FRDM.Sensors.Accelerometer.AccZ
#73725499
r0.811523 FRDM.Sensors.Accelerometer.AccX
r0.190918 FRDM.Sensors.Accelerometer.AccY
r0.212891 FRDM.Sensors.Accelerometer.AccZ
#73765498
r0.763672 FRDM.Sensors.Accelerometer.AccX
r0.202148 FRDM.Sensors.Accelerometer.AccY
r0.44873 FRDM.Sensors.Accelerometer.AccZ
#73855609
b00000000000000001111110110111000 FRDM.Sensors.Magnetometer.MagX
#73855731
b00000000000000000000001110001000 FRDM.Sensors.Magnetometer.MagY
#73855851
b00000000000000000000101111010100 FRDM.Sensors.Magnetometer.MagZ
#73965495
r0.87793 FRDM.Sensors.Accelerometer.AccX
r0.300781 FRDM.Sensors.Accelerometer.AccY
r0.379395 FRDM.Sensors.Accelerometer.AccZ
#74043194
b0100100 FRDM.Sensors.Slider
#74083194
b0100000 FRDM.Sensors.Slider
#74123194
b0100101 FRDM.Sensors.Slider
#74163193
b0101011 FRDM.Sensors.Slider
#74203225
r0.231998 FRDM.Sensors.Light
#74206019
b0101111 FRDM.Sensors.Slider
#74243194
b0110001 FRDM.Sensors.Slider
#74244930
r0.844727 FRDM.Sensors.Accelerometer.AccX
r0.200195 FRDM.Sensors.Accelerometer.AccY
r0.429199 FRDM.Sensors.Accelerometer.AccZ
#74283194
b0110010 FRDM.Sensors.Slider
#74323194
b0110100 FRDM.Sensors.Slider
#74405610
b0110111 FRDM.Sensors.Slider
#74408025
r0.793457 FRDM.Sensors.Accelerometer.AccX
r0.133789 FRDM.Sensors.Accelerometer.AccY
r0.556152 FRDM.Sensors.Accelerometer.AccZ
#74443194
b0111010 FRDM.Sensors.Slider
#74523194
b0111100 FRDM.Sensors.Slider
#74555584
b00000000000000001111110111101011 FRDM.Sensors.Magnetometer.MagX
#74555706
b00000000000000000000001101111101 FRDM.Sensors.Magnetometer.MagY
#74555826
b00000000000000000000101111101011 FRDM.Sensors.Magnetometer.MagZ
#74643193
b0111101 FRDM.Sensors.Slider
#74644928
r0.769043 FRDM.Sensors.Accelerometer.AccX
r0.0292969 FRDM.Sensors.Accelerometer.AccY
r0.563965 FRDM.Sensors.Accelerometer.AccZ
#74683193
b0111111 FRDM.Sensors.Slider
#74723193
b1000000 FRDM.Sensors.Slider
#74763193
b1000001 FRDM.Sensors.Slider
#74805704
b1000101 FRDM.Sensors.Slider
#74843193
b1001101 FRDM.Sensors.Slider
#74853226
r0.366888 FRDM.Sensors.Light
#74883193
b1010010 FRDM.Sensors.Slider
#74903226
r0.478981 FRDM.Sensors.Light
#74923194
b1010001 FRDM.Sensors.Slider
#75005708
b1010010 FRDM.Sensors.Slider
#75123194
b1010001 FRDM.Sensors.Slider
#75163194
b1010000 FRDM.Sensors.Slider
#75165608
r0.762695 FRDM.Sensors.Accelerometer.AccX
r0.0766602 FRDM.Sensors.Accelerometer.AccY
r0.671875 FRDM.Sensors.Accelerometer.AccZ
#75205613
b00000000000000001111110111100010 FRDM.Sensors.Magnetometer.MagX
#75205736
b00000000000000000000001101101001 FRDM.Sensors.Magnetometer.MagY
#75205855
b00000000000000000000110000100000 FRDM.Sensors.Magnetometer.MagZ
#75206000
b1001111 FRDM.Sensors.Slider
#75243193
b1001101 FRDM.Sensors.Slider
#75244927
r0.639648 FRDM.Sensors.Accelerometer.AccX
r0.0654297 FRDM.Sensors.Accelerometer.AccY
r0.689941 FRDM.Sensors.Accelerometer.AccZ
#75283193
b1001100 FRDM.Sensors.Slider
#75323193
b1001011 FRDM.Sensors.Slider
#75363194
b1001001 FRDM.Sensors.Slider
#75365609
r0.647461 FRDM.Sensors.Accelerometer.AccX
r0.0893555 FRDM.Sensors.Accelerometer.AccY
r0.794922 FRDM.Sensors.Accelerometer.AccZ
#75403226
r0.366583 FRDM.Sensors.Light
#75405944
b1001000 FRDM.Sensors.Slider
#75443194
b1000110 FRDM.Sensors.Slider
#75483194
b1000101 FRDM.Sensors.Slider
#75523193
b1000011 FRDM.Sensors.Slider
#75563193
b1000001 FRDM.Sensors.Slider
#75605649
b1000000 FRDM.Sensors.Slider
#75608065
r0.650391 FRDM.Sensors.Accelerometer.AccX
r0.132324 FRDM.Sensors.Accelerometer.AccY
r0.682617 FRDM.Sensors.Accelerometer.AccZ
#75643194
b0111111 FRDM.Sensors.Slider
#75683193
b0111101 FRDM.Sensors.Slider
#75723194
b0111010 FRDM.Sensors.Slider
#75763194
b0110110 FRDM.Sensors.Slider
#75805596
b0110100 FRDM.Sensors.Slider
#75843194
b0110010 FRDM.Sensors.Slider
#75883194
b0110001 FRDM.Sensors.Slider
#75923194
b0101111 FRDM.Sensors.Slider
#75963194
b0101110 FRDM.Sensors.Slider
#76005667
b0101101 FRDM.Sensors.Slider
#76083194
b0101110 FRDM.Sensors.Slider
#76123194
b0110000 FRDM.Sensors.Slider
#76125606
r0.773438 FRDM.Sensors.Accelerometer.AccX
r0.160645 FRDM.Sensors.Accelerometer.AccY
r0.597168 FRDM.Sensors.Accelerometer.AccZ
#76163194
b0110011 FRDM.Sensors.Slider
#76205589
b0110111 FRDM.Sensors.Slider
#76243194
b0111001 FRDM.Sensors.Slider
#76283194
b0111010 FRDM.Sensors.Slider
#76323193
b0111100 FRDM.Sensors.Slider
#76363193
b0111110 FRDM.Sensors.Slider
#76405674
b0111111 FRDM.Sensors.Slider
#76443193
b1000001 FRDM.Sensors.Slider
#76483193
b1000010 FRDM.Sensors.Slider
#76523194
b1000101 FRDM.Sensors.Slider
#76563193
b1001000 FRDM.Sensors.Slider
#76605704
b1001111 FRDM.Sensors.Slider
#76643193
b1010100 FRDM.Sensors.Slider
#76683192
b1011111 FRDM.Sensors.Slider
#76725504
r0.740234 FRDM.Sensors.Accelerometer.AccX
r0.0546875 FRDM.Sensors.Accelerometer.AccY
r0.638672 FRDM.Sensors.Accelerometer.AccZ
#76843193
b1011101 FRDM.Sensors.Slider
#76883193
b1011100 FRDM.Sensors.Slider
#76923192
b1011110 FRDM.Sensors.Slider
#76963185
b0000000 FRDM.Sensors.Slider
#77007912
r0.45459 FRDM.Sensors.Accelerometer.AccX
r0.0683594 FRDM.Sensors.Accelerometer.AccY
r0.64502 FRDM.Sensors.Accelerometer.AccZ
#77044814
r0.749023 FRDM.Sensors.Accelerometer.AccX
r0.103027 FRDM.Sensors.Accelerometer.AccY
r0.696289 FRDM.Sensors.Accelerometer.AccZ
#77207878
r0.595215 FRDM.Sensors.Accelerometer.AccX
r0.136719 FRDM.Sensors.Accelerometer.AccY
r0.672852 FRDM.Sensors.Accelerometer.AccZ
#77285495
r0.700195 FRDM.Sensors.Accelerometer.AccX
r0.196289 FRDM.Sensors.Accelerometer.AccY
r0.679199 FRDM.Sensors.Accelerometer.AccZ
#77353226
r0.484276 FRDM.Sensors.Light
#77403226
r0.594293 FRDM.Sensors.Light
#77453226
r0.479927 FRDM.Sensors.Light
#77655576
b00000000000000001111110110111001 FRDM.Sensors.Magnetometer.MagX
#77655817
b00000000000000000000110000110110 FRDM.Sensors.Magnetometer.MagZ
#77756251
b1 FRDM.Buttons.SW1
#77805674
b00000000000000001111110110111011 FRDM.Sensors.Magnetometer.MagX
#77805797
b00000000000000000000001101010101 FRDM.Sensors.Magnetometer.MagY
#77805916
b00000000000000000000110001110111 FRDM.Sensors.Magnetometer.MagZ
#77806061
b1100011 FRDM.Sensors.Slider
#77808473
r0.538574 FRDM.Sensors.Accelerometer.AccX
r0.172852 FRDM.Sensors.Accelerometer.AccY
r0.706543 FRDM.Sensors.Accelerometer.AccZ
#77883184
b0000000 FRDM.Sensors.Slider
#77885597
r0.59082 FRDM.Sensors.Accelerometer.AccX
r0.125 FRDM.Sensors.Accelerometer.AccY
r0.813477 FRDM.Sensors.Accelerometer.AccZ
#77914423
b0 FRDM.Buttons.SW1
#77965494
r0.754883 FRDM.Sensors.Accelerometer.AccX
r0.239258 FRDM.Sensors.Accelerometer.AccY
r0.692383 FRDM.Sensors.Accelerometer.AccZ
#78007919
r0.938477 FRDM.Sensors.Accelerometer.AccX
r0.186035 FRDM.Sensors.Accelerometer.AccY
r0.822266 FRDM.Sensors.Accelerometer.AccZ
#78044816
r0.569336 FRDM.Sensors.Accelerometer.AccX
r0.18457 FRDM.Sensors.Accelerometer.AccY
r0.738281 FRDM.Sensors.Accelerometer.AccZ
#78103226
r0.268879 FRDM.Sensors.Light
#78165498
r0.637207 FRDM.Sensors.Accelerometer.AccX
r0.138672 FRDM.Sensors.Accelerometer.AccY
r0.636719 FRDM.Sensors.Accelerometer.AccZ
#78244819
r0.614746 FRDM.Sensors.Accelerometer.AccX
r0.251465 FRDM.Sensors.Accelerometer.AccY
r1.29053 FRDM.Sensors.Accelerometer.AccZ
#78255586
b00000000000000001111110111000101 FRDM.Sensors.Magnetometer.MagX
#78255709
b00000000000000000000001101011010 FRDM.Sensors.Magnetometer.MagY
#78255828
b00000000000000000000110000111011 FRDM.Sensors.Magnetometer.MagZ
#78285498
r0.62207 FRDM.Sensors.Accelerometer.AccX
r0.264648 FRDM.Sensors.Accelerometer.AccY
r0.680664 FRDM.Sensors.Accelerometer.AccZ
#78325495
r0.657227 FRDM.Sensors.Accelerometer.AccX
r0.155273 FRDM.Sensors.Accelerometer.AccY
r0.55957 FRDM.Sensors.Accelerometer.AccZ
#78365497
r0.609375 FRDM.Sensors.Accelerometer.AccX
r0.181641 FRDM.Sensors.Accelerometer.AccY
r0.685547 FRDM.Sensors.Accelerometer.AccZ
#78525494
r0.762695 FRDM.Sensors.Accelerometer.AccX
r0.202148 FRDM.Sensors.Accelerometer.AccY
r0.727539 FRDM.Sensors.Accelerometer.AccZ
#78644819
r0.786133 FRDM.Sensors.Accelerometer.AccX
r0.172852 FRDM.Sensors.Accelerometer.AccY
r0.595703 FRDM.Sensors.Accelerometer.AccZ
#78685494
r0.661133 FRDM.Sensors.Accelerometer.AccX
r0.159668 FRDM.Sensors.Accelerometer.AccY
r0.540527 FRDM.Sensors.Accelerometer.AccZ
#78725495
r0.789062 FRDM.Sensors.Accelerometer.AccX
r0.131348 FRDM.Sensors.Accelerometer.AccY
r0.556152 FRDM.Sensors.Accelerometer.AccZ
#78739447
b1 FRDM.Buttons.SW3
#78755673
b00000000000000001111110111111100 FRDM.Sensors.Magnetometer.MagX
#78755796
b00000000000000000000001101001110 FRDM.Sensors.Magnetometer.MagY
#78755915
b00000000000000000000110000001100 FRDM.Sensors.Magnetometer.MagZ
#78965493
r0.665039 FRDM.Sensors.Accelerometer.AccX
r0.0732422 FRDM.Sensors.Accelerometer.AccY
r0.562012 FRDM.Sensors.Accelerometer.AccZ
#79044817
r0.757812 FRDM.Sensors.Accelerometer.AccX
r-0.0378418 FRDM.Sensors.Accelerometer.AccY
r0.802246 FRDM.Sensors.Accelerometer.AccZ
#79085494
r0.654297 FRDM.Sensors.Accelerometer.AccX
r0.0317383 FRDM.Sensors.Accelerometer.AccY
r0.638672 FRDM.Sensors.Accelerometer.AccZ
#79125498
r0.655762 FRDM.Sensors.Accelerometer.AccX
r-0.0305176 FRDM.Sensors.Accelerometer.AccY
r0.75293 FRDM.Sensors.Accelerometer.AccZ
#79150553
b0 FRDM.Buttons.SW3
#79155596
b00000000000000001111111000110010 FRDM.Sensors.Magnetometer.MagX
#79155718
b00000000000000000000001100110100 FRDM.Sensors.Magnetometer.MagY
#79155838
b00000000000000000000110000110101 FRDM.Sensors.Magnetometer.MagZ
#79207880
r0.543457 FRDM.Sensors.Accelerometer.AccX
r-0.0534668 FRDM.Sensors.Accelerometer.AccY
r0.860352 FRDM.Sensors.Accelerometer.AccZ
#79244816
r0.664062 FRDM.Sensors.Accelerometer.AccX
r-0.0065918 FRDM.Sensors.Accelerometer.AccY
r0.720703 FRDM.Sensors.Accelerometer.AccZ
#79345094
b1 FRDM.Buttons.SW3
#79485497
r0.603027 FRDM.Sensors.Accelerometer.AccX
r0.00244141 FRDM.Sensors.Accelerometer.AccY
r0.511719 FRDM.Sensors.Accelerometer.AccZ
#79487806
b0 FRDM.Buttons.SW3
#79525498
r0.553711 FRDM.Sensors.Accelerometer.AccX
r-0.095459 FRDM.Sensors.Accelerometer.AccY
r0.749512 FRDM.Sensors.Accelerometer.AccZ
#79598547
b1 FRDM.Buttons.SW3
#79644816
r0.667969 FRDM.Sensors.Accelerometer.AccX
r-0.0319824 FRDM.Sensors.Accelerometer.AccY
r0.787109 FRDM.Sensors.Accelerometer.AccZ
#79725494
r0.521973 FRDM.Sensors.Accelerometer.AccX
r-0.0310059 FRDM.Sensors.Accelerometer.AccY
r0.747559 FRDM.Sensors.Accelerometer.AccZ
#79727682
b0 FRDM.Buttons.SW3
#79807919
r0.645508 FRDM.Sensors.Accelerometer.AccX
r-0.0661621 FRDM.Sensors.Accelerometer.AccY
r0.686523 FRDM.Sensors.Accelerometer.AccZ
#79825219
b1 FRDM.Buttons.SW3
#79844918
r0.572754 FRDM.Sensors.Accelerometer.AccX
r-0.057373 FRDM.Sensors.Accelerometer.AccY
r0.798828 FRDM.Sensors.Accelerometer.AccZ
#79950589
b0 FRDM.Buttons.SW3
#80007983
r0.677734 FRDM.Sensors.Accelerometer.AccX
r-0.0358887 FRDM.Sensors.Accelerometer.AccY
r0.680176 FRDM.Sensors.Accelerometer.AccZ
#80021640
b1 FRDM.Buttons.SW3
#80085500
r0.706055 FRDM.Sensors.Accelerometer.AccX
r0.0322266 FRDM.Sensors.Accelerometer.AccY
r0.82959 FRDM.Sensors.Accelerometer.AccZ
#80125498
r0.643555 FRDM.Sensors.Accelerometer.AccX
r0.000488281 FRDM.Sensors.Accelerometer.AccY
r0.671875 FRDM.Sensors.Accelerometer.AccZ
#80156069
b0 FRDM.Buttons.SW3
#80244816
r0.473633 FRDM.Sensors.Accelerometer.AccX
r0.0151367 FRDM.Sensors.Accelerometer.AccY
r0.779297 FRDM.Sensors.Accelerometer.AccZ
#80285495
r0.77832 FRDM.Sensors.Accelerometer.AccX
r0.0537109 FRDM.Sensors.Accelerometer.AccY
r0.636719 FRDM.Sensors.Accelerometer.AccZ
#80325495
r0.641602 FRDM.Sensors.Accelerometer.AccX
r0.0898438 FRDM.Sensors.Accelerometer.AccY
r0.793457 FRDM.Sensors.Accelerometer.AccZ
#80355577
b00000000000000001111110111111110 FRDM.Sensors.Magnetometer.MagX
#80355700
b00000000000000000000001101000111 FRDM.Sensors.Magnetometer.MagY
#80355820
b00000000000000000000110000111111 FRDM.Sensors.Magnetometer.MagZ
#80407988
r0.564453 FRDM.Sensors.Accelerometer.AccX
r0.125977 FRDM.Sensors.Accelerometer.AccY
r0.901367 FRDM.Sensors.Accelerometer.AccZ
#80485497
r0.641602 FRDM.Sensors.Accelerometer.AccX
r0.132324 FRDM.Sensors.Accelerometer.AccY
r0.652344 FRDM.Sensors.Accelerometer.AccZ
#80553224
r0.461479 FRDM.Sensors.Light
#80603226
r0.571557 FRDM.Sensors.Light
#80703226
r0.458045 FRDM.Sensors.Light
#80965499
r0.700195 FRDM.Sensors.Accelerometer.AccX
r0.121094 FRDM.Sensors.Accelerometer.AccY
r0.781738 FRDM.Sensors.Accelerometer.AccZ
#81007922
r0.679688 FRDM.Sensors.Accelerometer.AccX
r0.125977 FRDM.Sensors.Accelerometer.AccY
r0.65918 FRDM.Sensors.Accelerometer.AccZ
#81053227
r0.564675 FRDM.Sensors.Light
#81085497
r0.697266 FRDM.Sensors.Accelerometer.AccX
r0.762695 FRDM.Sensors.Accelerometer.AccZ
#81193813
b1 FRDM.Buttons.SW1
#81207995
r0.589844 FRDM.Sensors.Accelerometer.AccX
r0.113281 FRDM.Sensors.Accelerometer.AccY
r0.783691 FRDM.Sensors.Accelerometer.AccZ
#81243193
b1100011 FRDM.Sensors.Slider
#81253226
r0.6701 FRDM.Sensors.Light
#81305592
b00000000000000001111110111101100 FRDM.Sensors.Magnetometer.MagX
#81305715
b00000000000000000000001100101011 FRDM.Sensors.Magnetometer.MagY
#81305834
b00000000000000000000110001110010 FRDM.Sensors.Magnetometer.MagZ
#81323185
b0000000 FRDM.Sensors.Slider
#81341032
b0 FRDM.Buttons.SW1
#81444816
r0.692871 FRDM.Sensors.Accelerometer.AccX
r0.0537109 FRDM.Sensors.Accelerometer.AccY
r0.90918 FRDM.Sensors.Accelerometer.AccZ
#81485493
r0.507812 FRDM.Sensors.Accelerometer.AccX
r0.132812 FRDM.Sensors.Accelerometer.AccY
r0.758301 FRDM.Sensors.Accelerometer.AccZ
#81493310
b1 FRDM.Buttons.SW1
#81607879
r0.611816 FRDM.Sensors.Accelerometer.AccX
r0.0751953 FRDM.Sensors.Accelerometer.AccY
r0.910156 FRDM.Sensors.Accelerometer.AccZ
#81624919
b0 FRDM.Buttons.SW1
#81644820
r0.515137 FRDM.Sensors.Accelerometer.AccX
r0.0810547 FRDM.Sensors.Accelerometer.AccY
r0.751465 FRDM.Sensors.Accelerometer.AccZ
#81725498
r0.585938 FRDM.Sensors.Accelerometer.AccX
r0.0844727 FRDM.Sensors.Accelerometer.AccY
r0.950195 FRDM.Sensors.Accelerometer.AccZ
#81748563
b1 FRDM.Buttons.SW1
#81765500
r0.496582 FRDM.Sensors.Accelerometer.AccX
r0.0634766 FRDM.Sensors.Accelerometer.AccY
r0.768066 FRDM.Sensors.Accelerometer.AccZ
#81808015
r0.503906 FRDM.Sensors.Accelerometer.AccX
r0.059082 FRDM.Sensors.Accelerometer.AccY
r0.939941 FRDM.Sensors.Accelerometer.AccZ
#81885498
r0.40918 FRDM.Sensors.Accelerometer.AccX
r0.115723 FRDM.Sensors.Accelerometer.AccY
r0.625488 FRDM.Sensors.Accelerometer.AccZ
#81900016
b0 FRDM.Buttons.SW1
#81925498
r0.499512 FRDM.Sensors.Accelerometer.AccX
r0.0966797 FRDM.Sensors.Accelerometer.AccY
r0.896973 FRDM.Sensors.Accelerometer.AccZ
#82085493
r0.753418 FRDM.Sensors.Accelerometer.AccX
r0.120117 FRDM.Sensors.Accelerometer.AccY
r0.855957 FRDM.Sensors.Accelerometer.AccZ
#82103225
r0.365667 FRDM.Sensors.Light
#82125493
r0.334961 FRDM.Sensors.Accelerometer.AccX
r0.0830078 FRDM.Sensors.Accelerometer.AccY
r0.8125 FRDM.Sensors.Accelerometer.AccZ
#82165495
r0.479492 FRDM.Sensors.Accelerometer.AccX
r0.046875 FRDM.Sensors.Accelerometer.AccY
r0.835938 FRDM.Sensors.Accelerometer.AccZ
#82244817
r0.709961 FRDM.Sensors.Accelerometer.AccX
r0.0483398 FRDM.Sensors.Accelerometer.AccY
r0.491699 FRDM.Sensors.Accelerometer.AccZ
#82285493
r0.547852 FRDM.Sensors.Accelerometer.AccX
r0.106445 FRDM.Sensors.Accelerometer.AccY
r0.784668 FRDM.Sensors.Accelerometer.AccZ
#82365494
r0.658203 FRDM.Sensors.Accelerometer.AccX
r0.0214844 FRDM.Sensors.Accelerometer.AccY
r1.0249 FRDM.Sensors.Accelerometer.AccZ
#82407972
r0.559082 FRDM.Sensors.Accelerometer.AccX
r0.0473633 FRDM.Sensors.Accelerometer.AccY
r0.878418 FRDM.Sensors.Accelerometer.AccZ
#82444820
r0.584961 FRDM.Sensors.Accelerometer.AccX
r0.046875 FRDM.Sensors.Accelerometer.AccY
r0.765625 FRDM.Sensors.Accelerometer.AccZ
#83012582
b1 FRDM.Buttons.SW3
#83174587
b0 FRDM.Buttons.SW3
#83714585
b1 FRDM.Buttons.SW3
#83755544
b00000000000000001111111000001001 FRDM.Sensors.Magnetometer.MagX
#83755666
b00000000000000000000001100101111 FRDM.Sensors.Magnetometer.MagY
#83755786
b00000000000000000000110001011001 FRDM.Sensors.Magnetometer.MagZ
#83841020
b0 FRDM.Buttons.SW3
#84217536
b1 FRDM.Buttons.SW3
#84318240
b0 FRDM.Buttons.SW3
#84407862
r0.602539 FRDM.Sensors.Accelerometer.AccX
r0.0317383 FRDM.Sensors.Accelerometer.AccY
r0.773438 FRDM.Sensors.Accelerometer.AccZ
#84553225
r0.371649 FRDM.Sensors.Light
#84603088
b1 FRDM.Buttons.SW3
#84677101
b0 FRDM.Buttons.SW3
#85030842
b1 FRDM.Buttons.SW3
#85120657
b0 FRDM.Buttons.SW3
#85603227
r0.473671 FRDM.Sensors.Light
#85653226
r0.603006 FRDM.Sensors.Light
#85885499
r0.669922 FRDM.Sensors.Accelerometer.AccX
r0.043457 FRDM.Sensors.Accelerometer.AccY
r0.900879 FRDM.Sensors.Accelerometer.AccZ
#85925499
r0.668945 FRDM.Sensors.Accelerometer.AccX
r0.0307617 FRDM.Sensors.Accelerometer.AccY
r0.708984 FRDM.Sensors.Accelerometer.AccZ
#86205598
b00000000000000001111111000011001 FRDM.Sensors.Magnetometer.MagX
#86205720
b00000000000000000000001100101000 FRDM.Sensors.Magnetometer.MagY
#86205840
b00000000000000000000110001001110 FRDM.Sensors.Magnetometer.MagZ
#86353226
r0.703151 FRDM.Sensors.Light
#86365494
r0.541992 FRDM.Sensors.Accelerometer.AccX
r0.0727539 FRDM.Sensors.Accelerometer.AccY
r0.800781 FRDM.Sensors.Accelerometer.AccZ
#86565494
r0.662598 FRDM.Sensors.Accelerometer.AccX
r0.0415039 FRDM.Sensors.Accelerometer.AccY
r0.867188 FRDM.Sensors.Accelerometer.AccZ
#86607918
r0.494629 FRDM.Sensors.Accelerometer.AccX
r0.0380859 FRDM.Sensors.Accelerometer.AccY
r0.794434 FRDM.Sensors.Accelerometer.AccZ
#86685496
r0.579102 FRDM.Sensors.Accelerometer.AccX
r0.0966797 FRDM.Sensors.Accelerometer.AccY
r0.894531 FRDM.Sensors.Accelerometer.AccZ
#86725497
r0.550781 FRDM.Sensors.Accelerometer.AccX
r0.0517578 FRDM.Sensors.Accelerometer.AccY
r0.79248 FRDM.Sensors.Accelerometer.AccZ
#87523193
b1100100 FRDM.Sensors.Slider
#87563193
b1100011 FRDM.Sensors.Slider
#87683185
b0000000 FRDM.Sensors.Slider
#87923192
b1100011 FRDM.Sensors.Slider
#87939000
b1 FRDM.Buttons.SW1
#88230416
b0 FRDM.Buttons.SW1
#88243185
b0000000 FRDM.Sensors.Slider
#88563193
b1100100 FRDM.Sensors.Slider
#88605693
b1100011 FRDM.Sensors.Slider
#88655607
b00000000000000001111111000000111 FRDM.Sensors.Magnetometer.MagX
#88655730
b00000000000000000000001100101110 FRDM.Sensors.Magnetometer.MagY
#88655849
b00000000000000000000110001010101 FRDM.Sensors.Magnetometer.MagZ
#88685500
r0.588867 FRDM.Sensors.Accelerometer.AccX
r0.0400391 FRDM.Sensors.Accelerometer.AccY
r0.792969 FRDM.Sensors.Accelerometer.AccZ
#88707985
b1 FRDM.Buttons.SW1
#88803225
r0.681895 FRDM.Sensors.Light
#88843193
b1100001 FRDM.Sensors.Slider
#88883193
b1100011 FRDM.Sensors.Slider
#89043185
b0000000 FRDM.Sensors.Slider
#89051359
b0 FRDM.Buttons.SW1
#89323193
b1100011 FRDM.Sensors.Slider
#89531225
b1 FRDM.Buttons.SW1
#89913368
b0 FRDM.Buttons.SW1
#89923185
b0000000 FRDM.Sensors.Slider
#89963193
b1100011 FRDM.Sensors.Slider
#90281728
b1 FRDM.Buttons.SW1
#90283192
b1100001 FRDM.Sensors.Slider
#90323193
b1100011 FRDM.Sensors.Slider
#90443193
b1100010 FRDM.Sensors.Slider
#90483193
b1100011 FRDM.Sensors.Slider
#90644823
r0.576172 FRDM.Sensors.Accelerometer.AccX
r0.0546875 FRDM.Sensors.Accelerometer.AccY
r0.811523 FRDM.Sensors.Accelerometer.AccZ
#90697091
b0 FRDM.Buttons.SW1
#90723185
b0000000 FRDM.Sensors.Slider
#90853226
r0.788525 FRDM.Sensors.Light
#90923193
b1100011 FRDM.Sensors.Slider
#91090808
b1 FRDM.Buttons.SW1
#91105544
b00000000000000001111111000000101 FRDM.Sensors.Magnetometer.MagX
