sources/vcdMaker/test/functional/test_003.vcd
$date Tue Dec 18 17:57:25 2018
$end
$version VCD Tracer "Nestor" Release v.3.0.2
$end
$timescale 1 us
$end
$scope module A $end
	$var wire 8 A.Val Val $end
$upscope $end
$scope module B $end
	$var wire 8 B.Val Val $end
$upscope $end
$scope module C $end
	$var real 64 C.Val Val $end
$upscope $end
$scope module D $end
	$var event 0 D.Event Event $end
$upscope $end
$scope module Top $end
	$scope module Cnt $end
		$var wire 64 Top.Cnt.High High $end
		$var wire 64 Top.Cnt.Low Low $end
	$upscope $end
$upscope $end
$enddefinitions $end
$dumpvars
bxxxxxxxx A.Val
bxxxxxxxx B.Val
r0.0 C.Val
bxxxxxxxxxxxxxxxxxxxxxxxxxxxxxxxxxxxxxxxxxxxxxxxxxxxxxxxxxxxxxxxx Top.Cnt.High
bxxxxxxxxxxxxxxxxxxxxxxxxxxxxxxxxxxxxxxxxxxxxxxxxxxxxxxxxxxxxxxxx Top.Cnt.Low
$end
#1
b00000100 A.Val
b0000000000000000000000000000000000000000000000000000000000000001 Top.Cnt.High
b0000000000000000000000000000000000000000000000000000000000000001 Top.Cnt.Low
#2
b00000101 A.Val
r0.15 C.Val
b0000000000000000000000000000000000000000000000000000000000000101 Top.Cnt.High
b0000000000000000000000000000000000000000000000000000000000000010 Top.Cnt.Low
#3
b00001011 B.Val
1D.Event
b0000000000000000000000000000000000000000000000000000000000010000 Top.Cnt.High
b0000000000000000000000000000000000000000000000000000000000000100 Top.Cnt.Low
#4
b00000110 A.Val
b00001100 B.Val
b0000000000000000000000000000000000000000000000000000000000010011 Top.Cnt.High
b0000000000000000000000000000000000000000000000000000000000000011 Top.Cnt.Low
#5
b0000000000000000000000000000000000000000000000000000000000000110 Top.Cnt.High
b0000000000000000000000000000000000000000000000000000000000000110 Top.Cnt.Low
#6
1D.Event
b0000000000000000000000000000000000000000000000000000000000001100 Top.Cnt.High
b0000000000000000000000000000000000000000000000000000000000000111 Top.Cnt.Low
#7
b00001011 A.Val
r1.45 C.Val
b0000000000000000000000000000000000000000000000000000000000001111 Top.Cnt.High
b0000000000000000000000000000000000000000000000000000000000001000 Top.Cnt.Low
#9
r3.14 C.Val
1D.Event
b0000000000000000000000000000000000000000000000000000000000010100 Top.Cnt.High
b0000000000000000000000000000000000000000000000000000000000010010 Top.Cnt.Low
#10
b00000110 A.Val
b0000000000000000000000000000000000000000000000000000000000010101 Top.Cnt.High
b0000000000000000000000000000000000000000000000000000000000010001 Top.Cnt.Low
