sources/common/doc/examples/example.vcd
$date Tue Dec 18 17:57:25 2018
$end
$version VCD Tracer "Nestor" Release v.3.0.2
$end
$timescale 1 us
$end
$scope module FRDM $end
	$scope module Buttons $end
		$var wire 1 FRDM.Buttons.SW1 SW1 $end
		$var wire 1 FRDM.Buttons.SW3 SW3 $end
	$upscope $end
	$scope module Sensors $end
		$scope module Accelerometer $end
			$var real 64 FRDM.Sensors.Accelerometer.AccX AccX $end
			$var real 64 FRDM.Sensors.Accelerometer.AccY AccY $end
			$var real 64 FRDM.Sensors.Accelerometer.AccZ AccZ $end
		$upscope $end
		$var real 64 FRDM.Sensors.Light Light $end
		$scope module Magnetometer $end
			$var wire 32 FRDM.Sensors.Magnetometer.MagX MagX $end
			$var wire 32 FRDM.Sensors.Magnetometer.MagY MagY $end
			$var wire 32 FRDM.Sensors.Magnetometer.MagZ MagZ $end
		$upscope $end
		$var wire 7 FRDM.Sensors.Slider Slider $end
	$upscope $end
$upscope $end
$enddefinitions $end
$dumpvars
bx FRDM.Buttons.SW1
bx FRDM.Buttons.SW3
r0.0 FRDM.Sensors.Accelerometer.AccX
r0.0 FRDM.Sensors.Accelerometer.AccY
r0.0 FRDM.Sensors.Accelerometer.AccZ
r0.0 FRDM.Sensors.Light
bxxxxxxxxxxxxxxxxxxxxxxxxxxxxxxxx FRDM.Sensors.Magnetometer.MagX
bxxxxxxxxxxxxxxxxxxxxxxxxxxxxxxxx FRDM.Sensors.Magnetometer.MagY
bxxxxxxxxxxxxxxxxxxxxxxxxxxxxxxxx FRDM.Sensors.Magnetometer.MagZ
bxxxxxxx FRDM.Sensors.Slider
$end
#49325499
r0.260742 FRDM.Sensors.Accelerometer.AccX
r0.0258789 FRDM.Sensors.Accelerometer.AccY
r0.879395 FRDM.Sensors.Accelerometer.AccZ
#49365497
r0.230469 FRDM.Sensors.Accelerometer.AccX
r-0.0222168 FRDM.Sensors.Accelerometer.AccY
r1.09863 FRDM.Sensors.Accelerometer.AccZ
#49407985
r0.0498047 FRDM.Sensors.Accelerometer.AccX
r-0.0895996 FRDM.Sensors.Accelerometer.AccY
r0.866211 FRDM.Sensors.Accelerometer.AccZ
#49444817
r0.150391 FRDM.Sensors.Accelerometer.AccX
r-0.112061 FRDM.Sensors.Accelerometer.AccY
r1.03564 FRDM.Sensors.Accelerometer.AccZ
#49503227
r0.673686 FRDM.Sensors.Light
#49807919
r0.208008 FRDM.Sensors.Accelerometer.AccX
r-0.010498 FRDM.Sensors.Accelerometer.AccY
r0.979004 FRDM.Sensors.Accelerometer.AccZ
#50003227
r0.562127 FRDM.Sensors.Light
#50044817
r0.220703 FRDM.Sensors.Accelerometer.AccX
r-0.128662 FRDM.Sensors.Accelerometer.AccY
r0.946289 FRDM.Sensors.Accelerometer.AccZ
#50165495
r0.350586 FRDM.Sensors.Accelerometer.AccX
r-0.0065918 FRDM.Sensors.Accelerometer.AccY
r0.82666 FRDM.Sensors.Accelerometer.AccZ
#50205587
b00000000000000001111111000000000 FRDM.Sensors.Magnetometer.MagX
#50205709
b00000000000000000000001100000011 FRDM.Sensors.Magnetometer.MagY
#50205829
b00000000000000000000110010001010 FRDM.Sensors.Magnetometer.MagZ
#50208278
r0.353516 FRDM.Sensors.Accelerometer.AccX
r0.0722656 FRDM.Sensors.Accelerometer.AccY
r1.0459 FRDM.Sensors.Accelerometer.AccZ
#50285494
r0.463867 FRDM.Sensors.Accelerometer.AccX
r0.0615234 FRDM.Sensors.Accelerometer.AccY
r0.817871 FRDM.Sensors.Accelerometer.AccZ
#50325498
r0.41748 FRDM.Sensors.Accelerometer.AccX
r0.123047 FRDM.Sensors.Accelerometer.AccY
r0.969238 FRDM.Sensors.Accelerometer.AccZ
#50365497
r0.374512 FRDM.Sensors.Accelerometer.AccX
r0.0390625 FRDM.Sensors.Accelerometer.AccY
r0.815918 FRDM.Sensors.Accelerometer.AccZ
#50407989
r0.393066 FRDM.Sensors.Accelerometer.AccX
r0.117676 FRDM.Sensors.Accelerometer.AccY
r0.959473 FRDM.Sensors.Accelerometer.AccZ
#50485498
r0.321289 FRDM.Sensors.Accelerometer.AccX
r0.0810547 FRDM.Sensors.Accelerometer.AccY
r0.844727 FRDM.Sensors.Accelerometer.AccZ
#50525499
r0.303711 FRDM.Sensors.Accelerometer.AccX
r0.111328 FRDM.Sensors.Accelerometer.AccY
r0.947266 FRDM.Sensors.Accelerometer.AccZ
#50925495
r0.41748 FRDM.Sensors.Accelerometer.AccX
r0.107422 FRDM.Sensors.Accelerometer.AccY
r0.934082 FRDM.Sensors.Accelerometer.AccZ
#51043184
b0000000 FRDM.Sensors.Slider
#51525498
r0.44043 FRDM.Sensors.Accelerometer.AccX
r0.09375 FRDM.Sensors.Accelerometer.AccY
r0.792969 FRDM.Sensors.Accelerometer.AccZ
#51565496
r0.489258 FRDM.Sensors.Accelerometer.AccX
r0.0581055 FRDM.Sensors.Accelerometer.AccY
r0.92041 FRDM.Sensors.Accelerometer.AccZ
#51925495
r0.37793 FRDM.Sensors.Accelerometer.AccX
r0.0371094 FRDM.Sensors.Accelerometer.AccY
r0.927734 FRDM.Sensors.Accelerometer.AccZ
#52007990
r0.178711 FRDM.Sensors.Accelerometer.AccX
r0.0126953 FRDM.Sensors.Accelerometer.AccY
r0.997559 FRDM.Sensors.Accelerometer.AccZ
#52044816
r0.0126953 FRDM.Sensors.Accelerometer.AccX
r0.0185547 FRDM.Sensors.Accelerometer.AccY
r1.0332 FRDM.Sensors.Accelerometer.AccZ
#52055613
b00000000000000001111110111111000 FRDM.Sensors.Magnetometer.MagX
#52055736
b00000000000000000000001010110000 FRDM.Sensors.Magnetometer.MagY
#52055855
b00000000000000000000110011001000 FRDM.Sensors.Magnetometer.MagZ
#52085498
r-0.0124512 FRDM.Sensors.Accelerometer.AccX
r0.107422 FRDM.Sensors.Accelerometer.AccY
r0.910645 FRDM.Sensors.Accelerometer.AccZ
#52105548
b00000000000000001111110111101100 FRDM.Sensors.Magnetometer.MagX
#52105671
b00000000000000000000001001110111 FRDM.Sensors.Magnetometer.MagY
#52105790
b00000000000000000000110011110000 FRDM.Sensors.Magnetometer.MagZ
#52125494
r-0.161377 FRDM.Sensors.Accelerometer.AccX
r0.110352 FRDM.Sensors.Accelerometer.AccY
r1.00293 FRDM.Sensors.Accelerometer.AccZ
#52155585
b00000000000000001111110111010111 FRDM.Sensors.Magnetometer.MagX
#52155708
b00000000000000000000001000101101 FRDM.Sensors.Magnetometer.MagY
#52155827
b00000000000000000000110100000000 FRDM.Sensors.Magnetometer.MagZ
#52165494
r-0.286865 FRDM.Sensors.Accelerometer.AccX
r0.202637 FRDM.Sensors.Accelerometer.AccY
r0.882324 FRDM.Sensors.Accelerometer.AccZ
#52205583
b00000000000000001111110110110100 FRDM.Sensors.Magnetometer.MagX
#52205706
b00000000000000000000000111101001 FRDM.Sensors.Magnetometer.MagY
#52205825
b00000000000000000000110100001100 FRDM.Sensors.Magnetometer.MagZ
#52208272
r-0.454346 FRDM.Sensors.Accelerometer.AccX
r0.291992 FRDM.Sensors.Accelerometer.AccY
r0.920898 FRDM.Sensors.Accelerometer.AccZ
#52244820
r-0.440186 FRDM.Sensors.Accelerometer.AccX
r0.336914 FRDM.Sensors.Accelerometer.AccY
r0.803711 FRDM.Sensors.Accelerometer.AccZ
#52255578
b00000000000000001111110110001001 FRDM.Sensors.Magnetometer.MagX
#52255700
b00000000000000000000000110110011 FRDM.Sensors.Magnetometer.MagY
#52255820
b00000000000000000000110100010011 FRDM.Sensors.Magnetometer.MagZ
#52285495
r-0.597412 FRDM.Sensors.Accelerometer.AccX
r0.411133 FRDM.Sensors.Accelerometer.AccY
r0.723633 FRDM.Sensors.Accelerometer.AccZ
#52305659
b00000000000000001111110101100101 FRDM.Sensors.Magnetometer.MagX
#52305782
b00000000000000000000000101101100 FRDM.Sensors.Magnetometer.MagY
#52305901
b00000000000000000000110100000011 FRDM.Sensors.Magnetometer.MagZ
#52365498
r-0.668701 FRDM.Sensors.Accelerometer.AccX
r0.491211 FRDM.Sensors.Accelerometer.AccY
r0.488281 FRDM.Sensors.Accelerometer.AccZ
#52403226
r0.691646 FRDM.Sensors.Light
#52405929
b00000000000000001111110100100000 FRDM.Sensors.Magnetometer.MagX
#52406052
b00000000000000000000000100011010 FRDM.Sensors.Magnetometer.MagY
#52406171
b00000000000000000000110011011000 FRDM.Sensors.Magnetometer.MagZ
#52444817
r-0.738037 FRDM.Sensors.Accelerometer.AccX
r0.595703 FRDM.Sensors.Accelerometer.AccY
r0.428223 FRDM.Sensors.Accelerometer.AccZ
#52485498
r-0.804443 FRDM.Sensors.Accelerometer.AccX
r0.624023 FRDM.Sensors.Accelerometer.AccY
r0.305664 FRDM.Sensors.Accelerometer.AccZ
#52505549
b00000000000000001111110011110010 FRDM.Sensors.Magnetometer.MagX
#52505672
b00000000000000000000000011101100 FRDM.Sensors.Magnetometer.MagY
#52505791
b00000000000000000000110010011100 FRDM.Sensors.Magnetometer.MagZ
#52605583
b00000000000000001111110100010101 FRDM.Sensors.Magnetometer.MagX
#52605706
b00000000000000000000000010111001 FRDM.Sensors.Magnetometer.MagY
#52605825
b00000000000000000000110001110100 FRDM.Sensors.Magnetometer.MagZ
#52608273
r-0.845459 FRDM.Sensors.Accelerometer.AccX
r0.479492 FRDM.Sensors.Accelerometer.AccY
r0.143555 FRDM.Sensors.Accelerometer.AccZ
#52685496
r-0.757568 FRDM.Sensors.Accelerometer.AccX
r0.325195 FRDM.Sensors.Accelerometer.AccY
r0.113281 FRDM.Sensors.Accelerometer.AccZ
#52705656
b00000000000000001111110101110011 FRDM.Sensors.Magnetometer.MagX
#52705779
b00000000000000000000000001111010 FRDM.Sensors.Magnetometer.MagY
#52705898
b00000000000000000000110001010100 FRDM.Sensors.Magnetometer.MagZ
#52725494
r-0.919678 FRDM.Sensors.Accelerometer.AccX
r0.267578 FRDM.Sensors.Accelerometer.AccY
r0.0805664 FRDM.Sensors.Accelerometer.AccZ
#52753226
r0.802014 FRDM.Sensors.Light
#52755874
b00000000000000001111110110101010 FRDM.Sensors.Magnetometer.MagX
#52755997
b00000000000000000000000001100100 FRDM.Sensors.Magnetometer.MagY
#52756116
b00000000000000000000110000110001 FRDM.Sensors.Magnetometer.MagZ
#52805557
b00000000000000001111110111100100 FRDM.Sensors.Magnetometer.MagX
#52805680
b00000000000000000000000001011000 FRDM.Sensors.Magnetometer.MagY
#52805798
b00000000000000000000110000100011 FRDM.Sensors.Magnetometer.MagZ
#52808245
r-0.780029 FRDM.Sensors.Accelerometer.AccX
r0.0605469 FRDM.Sensors.Accelerometer.AccY
r0.0869141 FRDM.Sensors.Accelerometer.AccZ
#52844816
r-1.10034 FRDM.Sensors.Accelerometer.AccX
r0.0839844 FRDM.Sensors.Accelerometer.AccY
r-0.041748 FRDM.Sensors.Accelerometer.AccZ
#52885495
r-0.928467 FRDM.Sensors.Accelerometer.AccX
r-0.0378418 FRDM.Sensors.Accelerometer.AccY
r-0.0803223 FRDM.Sensors.Accelerometer.AccZ
#52905613
b00000000000000001111111001001011 FRDM.Sensors.Magnetometer.MagX
#52905736
b00000000000000000000000001011010 FRDM.Sensors.Magnetometer.MagY
#52905854
b00000000000000000000110000000011 FRDM.Sensors.Magnetometer.MagZ
#52925497
r-0.892822 FRDM.Sensors.Accelerometer.AccX
r-0.0441895 FRDM.Sensors.Accelerometer.AccY
r0.0454102 FRDM.Sensors.Accelerometer.AccZ
#52965495
r-1.04663 FRDM.Sensors.Accelerometer.AccX
r-0.115479 FRDM.Sensors.Accelerometer.AccY
r0.0498047 FRDM.Sensors.Accelerometer.AccZ
#53005642
b00000000000000001111111010001010 FRDM.Sensors.Magnetometer.MagX
#53005765
b00000000000000000000000001110110 FRDM.Sensors.Magnetometer.MagY
#53005885
b00000000000000000000110000001110 FRDM.Sensors.Magnetometer.MagZ
#53008432
r-1.00073 FRDM.Sensors.Accelerometer.AccX
r-0.2229 FRDM.Sensors.Accelerometer.AccY
r0.100586 FRDM.Sensors.Accelerometer.AccZ
#53085496
r-1.00903 FRDM.Sensors.Accelerometer.AccX
r-0.335693 FRDM.Sensors.Accelerometer.AccY
r0.211914 FRDM.Sensors.Accelerometer.AccZ
#53105668
b00000000000000001111111011001001 FRDM.Sensors.Magnetometer.MagX
#53105791
b00000000000000000000000010010111 FRDM.Sensors.Magnetometer.MagY
#53105911
b00000000000000000000110000001101 FRDM.Sensors.Magnetometer.MagZ
#53125495
r-0.814697 FRDM.Sensors.Accelerometer.AccX
r-0.332764 FRDM.Sensors.Accelerometer.AccY
r0.184082 FRDM.Sensors.Accelerometer.AccZ
#53207937
r-0.931396 FRDM.Sensors.Accelerometer.AccX
r-0.469482 FRDM.Sensors.Accelerometer.AccY
r0.256836 FRDM.Sensors.Accelerometer.AccZ
#53244816
r-0.80835 FRDM.Sensors.Accelerometer.AccX
r-0.510986 FRDM.Sensors.Accelerometer.AccY
r0.308105 FRDM.Sensors.Accelerometer.AccZ
#53255530
b00000000000000001111111100001110 FRDM.Sensors.Magnetometer.MagX
#53255652
b00000000000000000000000011010001 FRDM.Sensors.Magnetometer.MagY
#53255772
b00000000000000000000110000010101 FRDM.Sensors.Magnetometer.MagZ
#53325495
r-0.67749 FRDM.Sensors.Accelerometer.AccX
r-0.645264 FRDM.Sensors.Accelerometer.AccY
r0.320801 FRDM.Sensors.Accelerometer.AccZ
#53355610
b00000000000000001111111101000001 FRDM.Sensors.Magnetometer.MagX
#53355733
b00000000000000000000000100100111 FRDM.Sensors.Magnetometer.MagY
#53355852
b00000000000000000000110000000010 FRDM.Sensors.Magnetometer.MagZ
#53407879
r-0.480225 FRDM.Sensors.Accelerometer.AccX
r-0.715088 FRDM.Sensors.Accelerometer.AccY
r0.344238 FRDM.Sensors.Accelerometer.AccZ
#53455675
b00000000000000001111111101011100 FRDM.Sensors.Magnetometer.MagX
#53455798
b00000000000000000000000110001111 FRDM.Sensors.Magnetometer.MagY
#53455917
b00000000000000000000101111100100 FRDM.Sensors.Magnetometer.MagZ
#53485497
r-0.425537 FRDM.Sensors.Accelerometer.AccX
r-0.868896 FRDM.Sensors.Accelerometer.AccY
r0.386719 FRDM.Sensors.Accelerometer.AccZ
#53555562
b00000000000000001111111101100001 FRDM.Sensors.Magnetometer.MagX
#53555685
b00000000000000000000000111100010 FRDM.Sensors.Magnetometer.MagY
#53555804
b00000000000000000000101110111101 FRDM.Sensors.Magnetometer.MagZ
#53565495
r-0.0251465 FRDM.Sensors.Accelerometer.AccX
r-0.908447 FRDM.Sensors.Accelerometer.AccY
r0.362305 FRDM.Sensors.Accelerometer.AccZ
#53605690
b00000000000000001111111101010100 FRDM.Sensors.Magnetometer.MagX
#53605812
b00000000000000000000001000100011 FRDM.Sensors.Magnetometer.MagY
#53605932
b00000000000000000000101110101100 FRDM.Sensors.Magnetometer.MagZ
#53685494
r0.0947266 FRDM.Sensors.Accelerometer.AccX
r-0.910889 FRDM.Sensors.Accelerometer.AccY
r0.446289 FRDM.Sensors.Accelerometer.AccZ
#53705585
b00000000000000001111111100111100 FRDM.Sensors.Magnetometer.MagX
#53705707
b00000000000000000000001001101000 FRDM.Sensors.Magnetometer.MagY
#53705827
b00000000000000000000101110101010 FRDM.Sensors.Magnetometer.MagZ
#53725493
r0.248047 FRDM.Sensors.Accelerometer.AccX
r-0.835693 FRDM.Sensors.Accelerometer.AccY
r0.386719 FRDM.Sensors.Accelerometer.AccZ
#53807920
r0.241699 FRDM.Sensors.Accelerometer.AccX
r-0.809326 FRDM.Sensors.Accelerometer.AccY
r0.538574 FRDM.Sensors.Accelerometer.AccZ
#53855578
b00000000000000001111111100010101 FRDM.Sensors.Magnetometer.MagX
#53855700
b00000000000000000000001010011101 FRDM.Sensors.Magnetometer.MagY
#53855820
b00000000000000000000101111001001 FRDM.Sensors.Magnetometer.MagZ
#53885496
r0.21582 FRDM.Sensors.Accelerometer.AccX
r-0.698486 FRDM.Sensors.Accelerometer.AccY
r0.618164 FRDM.Sensors.Accelerometer.AccZ
#53925495
r0.350586 FRDM.Sensors.Accelerometer.AccX
r-0.692139 FRDM.Sensors.Accelerometer.AccY
r0.674316 FRDM.Sensors.Accelerometer.AccZ
#53953226
r0.697978 FRDM.Sensors.Light
#53965494
r0.243164 FRDM.Sensors.Accelerometer.AccX
r-0.641846 FRDM.Sensors.Accelerometer.AccY
r0.839355 FRDM.Sensors.Accelerometer.AccZ
#54005566
b00000000000000001111111011100011 FRDM.Sensors.Magnetometer.MagX
#54005689
b00000000000000000000001011000010 FRDM.Sensors.Magnetometer.MagY
#54005808
b00000000000000000000110000010000 FRDM.Sensors.Magnetometer.MagZ
#54008257
r0.276367 FRDM.Sensors.Accelerometer.AccX
r-0.510986 FRDM.Sensors.Accelerometer.AccY
r0.61377 FRDM.Sensors.Accelerometer.AccZ
#54044816
r0.420898 FRDM.Sensors.Accelerometer.AccX
r-0.547607 FRDM.Sensors.Accelerometer.AccY
r0.782227 FRDM.Sensors.Accelerometer.AccZ
#54053226
r0.588586 FRDM.Sensors.Light
#54085496
r0.418945 FRDM.Sensors.Accelerometer.AccX
r-0.415771 FRDM.Sensors.Accelerometer.AccY
r0.828613 FRDM.Sensors.Accelerometer.AccZ
#54105612
b00000000000000001111111010110000 FRDM.Sensors.Magnetometer.MagX
#54105735
b00000000000000000000001011100000 FRDM.Sensors.Magnetometer.MagY
#54105855
b00000000000000000000110000110010 FRDM.Sensors.Magnetometer.MagZ
#54125497
r0.397949 FRDM.Sensors.Accelerometer.AccX
r-0.30835 FRDM.Sensors.Accelerometer.AccY
r0.732422 FRDM.Sensors.Accelerometer.AccZ
#54153226
r0.470024 FRDM.Sensors.Light
#54165494
r0.561523 FRDM.Sensors.Accelerometer.AccX
r-0.264404 FRDM.Sensors.Accelerometer.AccY
r0.808594 FRDM.Sensors.Accelerometer.AccZ
#54205614
b00000000000000001111111001111000 FRDM.Sensors.Magnetometer.MagX
#54205736
b00000000000000000000001100000110 FRDM.Sensors.Magnetometer.MagY
#54205856
b00000000000000000000110000111110 FRDM.Sensors.Magnetometer.MagZ
#54244816
r0.394531 FRDM.Sensors.Accelerometer.AccX
r-0.113037 FRDM.Sensors.Accelerometer.AccY
r0.736816 FRDM.Sensors.Accelerometer.AccZ
#54253226
r0.353552 FRDM.Sensors.Light
#54285494
r0.680664 FRDM.Sensors.Accelerometer.AccX
r-0.0944824 FRDM.Sensors.Accelerometer.AccY
r0.76123 FRDM.Sensors.Accelerometer.AccZ
#54305661
b00000000000000001111111000111110 FRDM.Sensors.Magnetometer.MagX
#54305784
b00000000000000000000001100111110 FRDM.Sensors.Magnetometer.MagY
#54305904
b00000000000000000000110000011101 FRDM.Sensors.Magnetometer.MagZ
#54325495
r0.823242 FRDM.Sensors.Accelerometer.AccX
r0.0166016 FRDM.Sensors.Accelerometer.AccY
r0.470215 FRDM.Sensors.Accelerometer.AccZ
#54403226
r0.246571 FRDM.Sensors.Light
#54408265
r0.794434 FRDM.Sensors.Accelerometer.AccX
r0.134766 FRDM.Sensors.Accelerometer.AccY
r0.501953 FRDM.Sensors.Accelerometer.AccZ
#54444815
r0.89502 FRDM.Sensors.Accelerometer.AccX
r0.100586 FRDM.Sensors.Accelerometer.AccY
r0.530273 FRDM.Sensors.Accelerometer.AccZ
#54485493
r0.787109 FRDM.Sensors.Accelerometer.AccX
r0.142578 FRDM.Sensors.Accelerometer.AccY
r0.470215 FRDM.Sensors.Accelerometer.AccZ
#54505583
b00000000000000001111111000000011 FRDM.Sensors.Magnetometer.MagX
#54505706
b00000000000000000000001101101011 FRDM.Sensors.Magnetometer.MagY
#54505826
b00000000000000000000101111100111 FRDM.Sensors.Magnetometer.MagZ
#54525495
r0.910156 FRDM.Sensors.Accelerometer.AccX
r0.220215 FRDM.Sensors.Accelerometer.AccY
r0.417969 FRDM.Sensors.Accelerometer.AccZ
#54565499
r0.844727 FRDM.Sensors.Accelerometer.AccX
r0.280762 FRDM.Sensors.Accelerometer.AccY
r0.518066 FRDM.Sensors.Accelerometer.AccZ
#54607883
r0.807617 FRDM.Sensors.Accelerometer.AccX
r0.305664 FRDM.Sensors.Accelerometer.AccY
r0.398438 FRDM.Sensors.Accelerometer.AccZ
#54644820
r0.810547 FRDM.Sensors.Accelerometer.AccX
r0.397461 FRDM.Sensors.Accelerometer.AccY
r0.578613 FRDM.Sensors.Accelerometer.AccZ
#54655671
b00000000000000001111110110101111 FRDM.Sensors.Magnetometer.MagX
#54655793
b00000000000000000000001101110001 FRDM.Sensors.Magnetometer.MagY
#54655913
b00000000000000000000110000001110 FRDM.Sensors.Magnetometer.MagZ
#54703226
r0.145663 FRDM.Sensors.Light
#54725497
r0.786133 FRDM.Sensors.Accelerometer.AccX
r0.435547 FRDM.Sensors.Accelerometer.AccY
r0.412598 FRDM.Sensors.Accelerometer.AccZ
#54755675
b00000000000000001111110101110111 FRDM.Sensors.Magnetometer.MagX
#54755797
b00000000000000000000001101110111 FRDM.Sensors.Magnetometer.MagY
#54755917
b00000000000000000000110000001000 FRDM.Sensors.Magnetometer.MagZ
#54885497
r0.830566 FRDM.Sensors.Accelerometer.AccX
r0.429688 FRDM.Sensors.Accelerometer.AccY
r0.302734 FRDM.Sensors.Accelerometer.AccZ
#55355580
b00000000000000001111110110001111 FRDM.Sensors.Magnetometer.MagX
#55355703
b00000000000000000000001110000010 FRDM.Sensors.Magnetometer.MagY
#55355822
b00000000000000000000101111010101 FRDM.Sensors.Magnetometer.MagZ
#55955652
b00000000000000001111110101011010 FRDM.Sensors.Magnetometer.MagX
#55955775
b00000000000000000000001101111010 FRDM.Sensors.Magnetometer.MagY
#55955894
b00000000000000000000101111111011 FRDM.Sensors.Magnetometer.MagZ
#56007981
r0.738281 FRDM.Sensors.Accelerometer.AccX
r0.540039 FRDM.Sensors.Accelerometer.AccY
r0.376953 FRDM.Sensors.Accelerometer.AccZ
#56325497
r0.668945 FRDM.Sensors.Accelerometer.AccX
r0.549805 FRDM.Sensors.Accelerometer.AccY
r0.5 FRDM.Sensors.Accelerometer.AccZ
#56405683
b00000000000000001111110101100000 FRDM.Sensors.Magnetometer.MagX
#56405806
b00000000000000000000001101010011 FRDM.Sensors.Magnetometer.MagY
#56405925
b00000000000000000000110001001100 FRDM.Sensors.Magnetometer.MagZ
#56408375
r0.630371 FRDM.Sensors.Accelerometer.AccX
r0.45459 FRDM.Sensors.Accelerometer.AccY
r0.655762 FRDM.Sensors.Accelerometer.AccZ
#56444816
r0.460938 FRDM.Sensors.Accelerometer.AccX
r0.438965 FRDM.Sensors.Accelerometer.AccY
r0.619629 FRDM.Sensors.Accelerometer.AccZ
#56455615
b00000000000000001111110101110110 FRDM.Sensors.Magnetometer.MagX
#56455738
b00000000000000000000001100100100 FRDM.Sensors.Magnetometer.MagY
#56455857
b00000000000000000000110010001101 FRDM.Sensors.Magnetometer.MagZ
#56485497
r0.477539 FRDM.Sensors.Accelerometer.AccX
r0.417969 FRDM.Sensors.Accelerometer.AccY
r0.760254 FRDM.Sensors.Accelerometer.AccZ
#56525499
r0.477051 FRDM.Sensors.Accelerometer.AccX
r0.397461 FRDM.Sensors.Accelerometer.AccY
r0.875488 FRDM.Sensors.Accelerometer.AccZ
#56603226
r0.253788 FRDM.Sensors.Light
#56605915
b00000000000000001111110110100110 FRDM.Sensors.Magnetometer.MagX
#56606038
b00000000000000000000001011011100 FRDM.Sensors.Magnetometer.MagY
#56606157
b00000000000000000000110011001010 FRDM.Sensors.Magnetometer.MagZ
#56608602
r0.311523 FRDM.Sensors.Accelerometer.AccX
r0.313477 FRDM.Sensors.Accelerometer.AccY
r0.844727 FRDM.Sensors.Accelerometer.AccZ
#56725497
r0.22168 FRDM.Sensors.Accelerometer.AccX
r0.224609 FRDM.Sensors.Accelerometer.AccY
r0.948242 FRDM.Sensors.Accelerometer.AccZ
#56753226
r0.360037 FRDM.Sensors.Light
#56755939
b00000000000000001111110111011010 FRDM.Sensors.Magnetometer.MagX
#56756061
b00000000000000000000001010011100 FRDM.Sensors.Magnetometer.MagY
#56756181
b00000000000000000000110011100101 FRDM.Sensors.Magnetometer.MagZ
#56844816
r0.0810547 FRDM.Sensors.Accelerometer.AccX
r0.15918 FRDM.Sensors.Accelerometer.AccY
r0.959961 FRDM.Sensors.Accelerometer.AccZ
#56903226
r0.472572 FRDM.Sensors.Light
#56905925
b00000000000000001111110111110111 FRDM.Sensors.Magnetometer.MagX
#56906048
b00000000000000000000001001000101 FRDM.Sensors.Magnetometer.MagY
#56906168
b00000000000000000000110100001100 FRDM.Sensors.Magnetometer.MagZ
#56965494
r-0.0617676 FRDM.Sensors.Accelerometer.AccX
r0.116211 FRDM.Sensors.Accelerometer.AccY
r0.952637 FRDM.Sensors.Accelerometer.AccZ
#57055676
b00000000000000001111111000010011 FRDM.Sensors.Magnetometer.MagX
#57055799
b00000000000000000000001000001100 FRDM.Sensors.Magnetometer.MagY
#57055918
b00000000000000000000110100001000 FRDM.Sensors.Magnetometer.MagZ
#58807949
r-0.101318 FRDM.Sensors.Accelerometer.AccX
r0.0756836 FRDM.Sensors.Accelerometer.AccY
r1.09961 FRDM.Sensors.Accelerometer.AccZ
#58853226
r0.596124 FRDM.Sensors.Light
#58885593
r-0.265381 FRDM.Sensors.Accelerometer.AccX
r0.0263672 FRDM.Sensors.Accelerometer.AccY
r0.908203 FRDM.Sensors.Accelerometer.AccZ
#58905627
b00000000000000001111111000110111 FRDM.Sensors.Magnetometer.MagX
#58905749
b00000000000000000000000111001010 FRDM.Sensors.Magnetometer.MagY
#58905869
b00000000000000000000110100000001 FRDM.Sensors.Magnetometer.MagZ
#58953227
r0.7084 FRDM.Sensors.Light
#59005578
b00000000000000001111111001010001 FRDM.Sensors.Magnetometer.MagX
#59005700
b00000000000000000000000110010001 FRDM.Sensors.Magnetometer.MagY
#59005820
b00000000000000000000110011111001 FRDM.Sensors.Magnetometer.MagZ
#59008266
r-0.395752 FRDM.Sensors.Accelerometer.AccX
r-0.00463867 FRDM.Sensors.Accelerometer.AccY
r0.970703 FRDM.Sensors.Accelerometer.AccZ
#59755548
b00000000000000001111111000111111 FRDM.Sensors.Magnetometer.MagX
#59755671
b00000000000000000000000111000100 FRDM.Sensors.Magnetometer.MagY
#59755790
b00000000000000000000110100000001 FRDM.Sensors.Magnetometer.MagZ
#59765494
r-0.21167 FRDM.Sensors.Accelerometer.AccX
r0.0146484 FRDM.Sensors.Accelerometer.AccY
r0.909668 FRDM.Sensors.Accelerometer.AccZ
#59803226
r0.577478 FRDM.Sensors.Light
#59808316
r-0.111084 FRDM.Sensors.Accelerometer.AccX
r0.0151367 FRDM.Sensors.Accelerometer.AccY
r0.938965 FRDM.Sensors.Accelerometer.AccZ
#59844818
r-0.136475 FRDM.Sensors.Accelerometer.AccX
r0.0610352 FRDM.Sensors.Accelerometer.AccY
r1.10498 FRDM.Sensors.Accelerometer.AccZ
#59855590
b00000000000000001111111000101101 FRDM.Sensors.Magnetometer.MagX
#59855712
b00000000000000000000001000011011 FRDM.Sensors.Magnetometer.MagY
#59855832
b00000000000000000000110100000010 FRDM.Sensors.Magnetometer.MagZ
#59885495
r-0.00854492 FRDM.Sensors.Accelerometer.AccX
r0.0537109 FRDM.Sensors.Accelerometer.AccY
r0.999023 FRDM.Sensors.Accelerometer.AccZ
#60685496
r0.00244141 FRDM.Sensors.Accelerometer.AccX
r-0.0808105 FRDM.Sensors.Accelerometer.AccY
r0.980957 FRDM.Sensors.Accelerometer.AccZ
#60755547
b00000000000000001111111001101101 FRDM.Sensors.Magnetometer.MagX
#60755670
b00000000000000000000001001001100 FRDM.Sensors.Magnetometer.MagY
#60755789
b00000000000000000000110011011101 FRDM.Sensors.Magnetometer.MagZ
#60765495
r0.0878906 FRDM.Sensors.Accelerometer.AccX
r-0.193115 FRDM.Sensors.Accelerometer.AccY
r0.970703 FRDM.Sensors.Accelerometer.AccZ
#60855589
b00000000000000001111111010100101 FRDM.Sensors.Magnetometer.MagX
#60855711
b00000000000000000000001001000000 FRDM.Sensors.Magnetometer.MagY
#60855831
b00000000000000000000110010101110 FRDM.Sensors.Magnetometer.MagZ
#60885496
r0.0244141 FRDM.Sensors.Accelerometer.AccX
r-0.306396 FRDM.Sensors.Accelerometer.AccY
r0.987793 FRDM.Sensors.Accelerometer.AccZ
#61485496
r0.0576172 FRDM.Sensors.Accelerometer.AccX
r-0.202393 FRDM.Sensors.Accelerometer.AccY
r0.989258 FRDM.Sensors.Accelerometer.AccZ
#61555681
b00000000000000001111111001110001 FRDM.Sensors.Magnetometer.MagX
#61555803
b00000000000000000000001000111100 FRDM.Sensors.Magnetometer.MagY
#61555923
b00000000000000000000110011011001 FRDM.Sensors.Magnetometer.MagZ
#61565495
r0.0205078 FRDM.Sensors.Accelerometer.AccX
r-0.0163574 FRDM.Sensors.Accelerometer.AccY
r0.95459 FRDM.Sensors.Accelerometer.AccZ
#61644818
r-0.000732422 FRDM.Sensors.Accelerometer.AccX
r0.124023 FRDM.Sensors.Accelerometer.AccY
r1.02295 FRDM.Sensors.Accelerometer.AccZ
#61655584
b00000000000000001111111000010001 FRDM.Sensors.Magnetometer.MagX
#61655706
b00000000000000000000001000111101 FRDM.Sensors.Magnetometer.MagY
#61655826
b00000000000000000000110100000000 FRDM.Sensors.Magnetometer.MagZ
#61703227
r0.471458 FRDM.Sensors.Light
#61755611
b00000000000000001111110111001111 FRDM.Sensors.Magnetometer.MagX
#61755853
b00000000000000000000110100000111 FRDM.Sensors.Magnetometer.MagZ
#61765495
r-0.0319824 FRDM.Sensors.Accelerometer.AccX
r0.255859 FRDM.Sensors.Accelerometer.AccY
r1.02686 FRDM.Sensors.Accelerometer.AccZ
