sources/vcdMerge/test/functional/test0_us.vcd
$date Tue Dec 18 17:57:25 2018
$end
$version VCD Tracer "Nestor" Release v.3.0.2
$end
$timescale 1 us
$end
$scope module System1 $end
	$scope module Disco $end
		$scope module Buttons $end
			$var wire 1 System1.Disco.Buttons.Center Center $end
			$var wire 1 System1.Disco.Buttons.Down Down $end
			$var wire 1 System1.Disco.Buttons.Left Left $end
			$var wire 1 System1.Disco.Buttons.Right Right $end
			$var wire 1 System1.Disco.Buttons.Up Up $end
		$upscope $end
		$scope module Sensors $end
			$scope module Accelerometer $end
				$var real 64 System1.Disco.Sensors.Accelerometer.AccX AccX $end
				$var real 64 System1.Disco.Sensors.Accelerometer.AccY AccY $end
				$var real 64 System1.Disco.Sensors.Accelerometer.AccZ AccZ $end
			$upscope $end
			$scope module Magnetometer $end
				$var real 64 System1.Disco.Sensors.Magnetometer.MagX MagX $end
				$var real 64 System1.Disco.Sensors.Magnetometer.MagY MagY $end
				$var real 64 System1.Disco.Sensors.Magnetometer.MagZ MagZ $end
			$upscope $end
		$upscope $end
		$var event 0 System1.Disco.Sync Sync $end
	$upscope $end
	$scope module Top $end
		$scope module Counter $end
			$var wire 64 System1.Top.Counter.High High $end
			$var wire 64 System1.Top.Counter.Low Low $end
		$upscope $end
	$upscope $end
$upscope $end
$scope module System2 $end
	$scope module FRDM $end
		$scope module Buttons $end
			$var wire 1 System2.FRDM.Buttons.SW1 SW1 $end
			$var wire 1 System2.FRDM.Buttons.SW3 SW3 $end
		$upscope $end
		$scope module Sensors $end
			$scope module Accelerometer $end
				$var real 64 System2.FRDM.Sensors.Accelerometer.AccX AccX $end
				$var real 64 System2.FRDM.Sensors.Accelerometer.AccY AccY $end
				$var real 64 System2.FRDM.Sensors.Accelerometer.AccZ AccZ $end
			$upscope $end
			$var real 64 System2.FRDM.Sensors.Light Light $end
			$scope module Magnetometer $end
				$var wire 32 System2.FRDM.Sensors.Magnetometer.MagX MagX $end
				$var wire 32 System2.FRDM.Sensors.Magnetometer.MagY MagY $end
				$var wire 32 System2.FRDM.Sensors.Magnetometer.MagZ MagZ $end
			$upscope $end
			$var wire 7 System2.FRDM.Sensors.Slider Slider $end
		$upscope $end
		$var event 0 System2.FRDM.Sync Sync $end
	$upscope $end
	$scope module Top $end
		$scope module Counter $end
			$var wire 64 System2.Top.Counter.High High $end
			$var wire 64 System2.Top.Counter.Low Low $end
		$upscope $end
	$upscope $end
$upscope $end
$enddefinitions $end
$dumpvars
bx System1.Disco.Buttons.Center
bx System1.Disco.Buttons.Down
bx System1.Disco.Buttons.Left
bx System1.Disco.Buttons.Right
bx System1.Disco.Buttons.Up
r0.0 System1.Disco.Sensors.Accelerometer.AccX
r0.0 System1.Disco.Sensors.Accelerometer.AccY
r0.0 System1.Disco.Sensors.Accelerometer.AccZ
r0.0 System1.Disco.Sensors.Magnetometer.MagX
r0.0 System1.Disco.Sensors.Magnetometer.MagY
r0.0 System1.Disco.Sensors.Magnetometer.MagZ
bxxxxxxxxxxxxxxxxxxxxxxxxxxxxxxxxxxxxxxxxxxxxxxxxxxxxxxxxxxxxxxxx System1.Top.Counter.High
bxxxxxxxxxxxxxxxxxxxxxxxxxxxxxxxxxxxxxxxxxxxxxxxxxxxxxxxxxxxxxxxx System1.Top.Counter.Low
bx System2.FRDM.Buttons.SW1
bx System2.FRDM.Buttons.SW3
r0.0 System2.FRDM.Sensors.Accelerometer.AccX
r0.0 System2.FRDM.Sensors.Accelerometer.AccY
r0.0 System2.FRDM.Sensors.Accelerometer.AccZ
r0.0 System2.FRDM.Sensors.Light
bxxxxxxxxxxxxxxxxxxxxxxxxxxxxxxxx System2.FRDM.Sensors.Magnetometer.MagX
bxxxxxxxxxxxxxxxxxxxxxxxxxxxxxxxx System2.FRDM.Sensors.Magnetometer.MagY
bxxxxxxxxxxxxxxxxxxxxxxxxxxxxxxxx System2.FRDM.Sensors.Magnetometer.MagZ
bxxxxxxx System2.FRDM.Sensors.Slider
bxxxxxxxxxxxxxxxxxxxxxxxxxxxxxxxxxxxxxxxxxxxxxxxxxxxxxxxxxxxxxxxx System2.Top.Counter.High
bxxxxxxxxxxxxxxxxxxxxxxxxxxxxxxxxxxxxxxxxxxxxxxxxxxxxxxxxxxxxxxxx System2.Top.Counter.Low
$end
#0
b00000000000000001111110011100111 System2.FRDM.Sensors.Magnetometer.MagX
b0000000000000000000000000000000000000000000000000000000000000001 System2.Top.Counter.High
b0000000000000000000000000000000000000000000000000000000000000001 System2.Top.Counter.Low
#124
b00000000000000000000000010010000 System2.FRDM.Sensors.Magnetometer.MagY
b0000000000000000000000000000000000000000000000000000000000000010 System2.Top.Counter.High
b0000000000000000000000000000000000000000000000000000000000000010 System2.Top.Counter.Low
#244
b00000000000000000000101111110101 System2.FRDM.Sensors.Magnetometer.MagZ
b0000000000000000000000000000000000000000000000000000000000000011 System2.Top.Counter.High
b0000000000000000000000000000000000000000000000000000000000000011 System2.Top.Counter.Low
#152368
r-0.833252 System2.FRDM.Sensors.Accelerometer.AccX
r-0.020264 System2.FRDM.Sensors.Accelerometer.AccY
r0.561035 System2.FRDM.Sensors.Accelerometer.AccZ
b0000000000000000000000000000000000000000000000000000000000000110 System2.Top.Counter.High
b0000000000000000000000000000000000000000000000000000000000000100 System2.Top.Counter.Low
#187581
b0000000 System2.FRDM.Sensors.Slider
b0000000000000000000000000000000000000000000000000000000000000111 System2.Top.Counter.High
b0000000000000000000000000000000000000000000000000000000000000111 System2.Top.Counter.Low
#697604
r0.978454 System2.FRDM.Sensors.Light
b0000000000000000000000000000000000000000000000000000000000001000 System2.Top.Counter.High
b0000000000000000000000000000000000000000000000000000000000001000 System2.Top.Counter.Low
#700134
b00000000000000001111110100000010 System2.FRDM.Sensors.Magnetometer.MagX
b0000000000000000000000000000000000000000000000000000000000001001 System2.Top.Counter.High
b0000000000000000000000000000000000000000000000000000000000001001 System2.Top.Counter.Low
#700258
b00000000000000000000000001110000 System2.FRDM.Sensors.Magnetometer.MagY
b0000000000000000000000000000000000000000000000000000000000001010 System2.Top.Counter.High
b0000000000000000000000000000000000000000000000000000000000001010 System2.Top.Counter.Low
#700378
b00000000000000000000101111100111 System2.FRDM.Sensors.Magnetometer.MagZ
b0000000000000000000000000000000000000000000000000000000000001011 System2.Top.Counter.High
b0000000000000000000000000000000000000000000000000000000000001011 System2.Top.Counter.Low
#829877
r-0.899658 System2.FRDM.Sensors.Accelerometer.AccX
r-0.063721 System2.FRDM.Sensors.Accelerometer.AccY
r0.412598 System2.FRDM.Sensors.Accelerometer.AccZ
b0000000000000000000000000000000000000000000000000000000000001110 System2.Top.Counter.High
b0000000000000000000000000000000000000000000000000000000000001100 System2.Top.Counter.Low
#899975
b00000000000000001111110100001101 System2.FRDM.Sensors.Magnetometer.MagX
b0000000000000000000000000000000000000000000000000000000000001111 System2.Top.Counter.High
b0000000000000000000000000000000000000000000000000000000000001111 System2.Top.Counter.Low
#900098
b00000000000000000000000001011100 System2.FRDM.Sensors.Magnetometer.MagY
b0000000000000000000000000000000000000000000000000000000000010000 System2.Top.Counter.High
b0000000000000000000000000000000000000000000000000000000000010000 System2.Top.Counter.Low
#900217
b00000000000000000000101110100110 System2.FRDM.Sensors.Magnetometer.MagZ
b0000000000000000000000000000000000000000000000000000000000010001 System2.Top.Counter.High
b0000000000000000000000000000000000000000000000000000000000010001 System2.Top.Counter.Low
#989199
r-0.955322 System2.FRDM.Sensors.Accelerometer.AccX
r-0.087158 System2.FRDM.Sensors.Accelerometer.AccY
r0.238770 System2.FRDM.Sensors.Accelerometer.AccZ
b0000000000000000000000000000000000000000000000000000000000010100 System2.Top.Counter.High
b0000000000000000000000000000000000000000000000000000000000010010 System2.Top.Counter.Low
#1049975
b00000000000000001111110100010100 System2.FRDM.Sensors.Magnetometer.MagX
b0000000000000000000000000000000000000000000000000000000000010101 System2.Top.Counter.High
b0000000000000000000000000000000000000000000000000000000000010101 System2.Top.Counter.Low
#1050099
b00000000000000000000000001011001 System2.FRDM.Sensors.Magnetometer.MagY
b0000000000000000000000000000000000000000000000000000000000010110 System2.Top.Counter.High
b0000000000000000000000000000000000000000000000000000000000010110 System2.Top.Counter.Low
#1050218
b00000000000000000000101101110000 System2.FRDM.Sensors.Magnetometer.MagZ
b0000000000000000000000000000000000000000000000000000000000010111 System2.Top.Counter.High
b0000000000000000000000000000000000000000000000000000000000010111 System2.Top.Counter.Low
#1152369
r-0.983154 System2.FRDM.Sensors.Accelerometer.AccX
r-0.140381 System2.FRDM.Sensors.Accelerometer.AccY
r0.113770 System2.FRDM.Sensors.Accelerometer.AccZ
b0000000000000000000000000000000000000000000000000000000000011010 System2.Top.Counter.High
b0000000000000000000000000000000000000000000000000000000000011000 System2.Top.Counter.Low
#1229877
r-0.970947 System2.FRDM.Sensors.Accelerometer.AccX
r-0.129639 System2.FRDM.Sensors.Accelerometer.AccY
r-0.027588 System2.FRDM.Sensors.Accelerometer.AccZ
b0000000000000000000000000000000000000000000000000000000000011101 System2.Top.Counter.High
b0000000000000000000000000000000000000000000000000000000000011011 System2.Top.Counter.Low
#1250043
b00000000000000001111110100011011 System2.FRDM.Sensors.Magnetometer.MagX
b0000000000000000000000000000000000000000000000000000000000011110 System2.Top.Counter.High
b0000000000000000000000000000000000000000000000000000000000011110 System2.Top.Counter.Low
#1250166
b00000000000000000000000001011011 System2.FRDM.Sensors.Magnetometer.MagY
b0000000000000000000000000000000000000000000000000000000000011111 System2.Top.Counter.High
b0000000000000000000000000000000000000000000000000000000000011111 System2.Top.Counter.Low
#1250285
b00000000000000000000101100111011 System2.FRDM.Sensors.Magnetometer.MagZ
b0000000000000000000000000000000000000000000000000000000000100000 System2.Top.Counter.High
b0000000000000000000000000000000000000000000000000000000000100000 System2.Top.Counter.Low
#1309875
r-1.140381 System2.FRDM.Sensors.Accelerometer.AccX
r-0.163818 System2.FRDM.Sensors.Accelerometer.AccY
r-0.020752 System2.FRDM.Sensors.Accelerometer.AccZ
b0000000000000000000000000000000000000000000000000000000000100011 System2.Top.Counter.High
b0000000000000000000000000000000000000000000000000000000000100001 System2.Top.Counter.Low
#1352289
r-0.851318 System2.FRDM.Sensors.Accelerometer.AccX
r-0.171631 System2.FRDM.Sensors.Accelerometer.AccY
r-0.072998 System2.FRDM.Sensors.Accelerometer.AccZ
b0000000000000000000000000000000000000000000000000000000000100110 System2.Top.Counter.High
b0000000000000000000000000000000000000000000000000000000000100100 System2.Top.Counter.Low
#1389195
r-0.962646 System2.FRDM.Sensors.Accelerometer.AccX
r-0.179443 System2.FRDM.Sensors.Accelerometer.AccY
r-0.218018 System2.FRDM.Sensors.Accelerometer.AccZ
b0000000000000000000000000000000000000000000000000000000000101001 System2.Top.Counter.High
b0000000000000000000000000000000000000000000000000000000000100111 System2.Top.Counter.Low
#1450002
b00000000000000001111110100101000 System2.FRDM.Sensors.Magnetometer.MagX
b0000000000000000000000000000000000000000000000000000000000101010 System2.Top.Counter.High
b0000000000000000000000000000000000000000000000000000000000101010 System2.Top.Counter.Low
#1450125
b00000000000000000000000001101110 System2.FRDM.Sensors.Magnetometer.MagY
b0000000000000000000000000000000000000000000000000000000000101011 System2.Top.Counter.High
b0000000000000000000000000000000000000000000000000000000000101011 System2.Top.Counter.Low
#1450246
b00000000000000000000101011110100 System2.FRDM.Sensors.Magnetometer.MagZ
b0000000000000000000000000000000000000000000000000000000000101100 System2.Top.Counter.High
b0000000000000000000000000000000000000000000000000000000000101100 System2.Top.Counter.Low
#1469875
r-0.848877 System2.FRDM.Sensors.Accelerometer.AccX
r-0.191650 System2.FRDM.Sensors.Accelerometer.AccY
r-0.209717 System2.FRDM.Sensors.Accelerometer.AccZ
b0000000000000000000000000000000000000000000000000000000000101111 System2.Top.Counter.High
b0000000000000000000000000000000000000000000000000000000000101101 System2.Top.Counter.Low
#1509874
r-0.968994 System2.FRDM.Sensors.Accelerometer.AccX
r-0.178467 System2.FRDM.Sensors.Accelerometer.AccY
r-0.198486 System2.FRDM.Sensors.Accelerometer.AccZ
b0000000000000000000000000000000000000000000000000000000000110010 System2.Top.Counter.High
b0000000000000000000000000000000000000000000000000000000000110000 System2.Top.Counter.Low
#1552320
r-0.935303 System2.FRDM.Sensors.Accelerometer.AccX
r-0.198486 System2.FRDM.Sensors.Accelerometer.AccY
r-0.359619 System2.FRDM.Sensors.Accelerometer.AccZ
b0000000000000000000000000000000000000000000000000000000000110101 System2.Top.Counter.High
b0000000000000000000000000000000000000000000000000000000000110011 System2.Top.Counter.Low
#1629879
r-0.943115 System2.FRDM.Sensors.Accelerometer.AccX
r-0.172607 System2.FRDM.Sensors.Accelerometer.AccY
r-0.251221 System2.FRDM.Sensors.Accelerometer.AccZ
b0000000000000000000000000000000000000000000000000000000000111000 System2.Top.Counter.High
b0000000000000000000000000000000000000000000000000000000000110110 System2.Top.Counter.Low
#1789197
r-1.002686 System2.FRDM.Sensors.Accelerometer.AccX
r-0.043213 System2.FRDM.Sensors.Accelerometer.AccY
r-0.306396 System2.FRDM.Sensors.Accelerometer.AccZ
b0000000000000000000000000000000000000000000000000000000000111011 System2.Top.Counter.High
b0000000000000000000000000000000000000000000000000000000000111001 System2.Top.Counter.Low
#1909876
r-0.906006 System2.FRDM.Sensors.Accelerometer.AccX
r-0.161865 System2.FRDM.Sensors.Accelerometer.AccY
r-0.425049 System2.FRDM.Sensors.Accelerometer.AccZ
b0000000000000000000000000000000000000000000000000000000000111110 System2.Top.Counter.High
b0000000000000000000000000000000000000000000000000000000000111100 System2.Top.Counter.Low
#1989199
r-0.989014 System2.FRDM.Sensors.Accelerometer.AccX
r-0.109131 System2.FRDM.Sensors.Accelerometer.AccY
r-0.187256 System2.FRDM.Sensors.Accelerometer.AccZ
b0000000000000000000000000000000000000000000000000000000001000001 System2.Top.Counter.High
b0000000000000000000000000000000000000000000000000000000000111111 System2.Top.Counter.Low
#2109872
r-0.996338 System2.FRDM.Sensors.Accelerometer.AccX
r-0.072510 System2.FRDM.Sensors.Accelerometer.AccY
r-0.267334 System2.FRDM.Sensors.Accelerometer.AccZ
b0000000000000000000000000000000000000000000000000000000001000100 System2.Top.Counter.High
b0000000000000000000000000000000000000000000000000000000001000010 System2.Top.Counter.Low
#2150029
b0000000000000000000000000000000000000000000000000000000001000101 System2.Top.Counter.High
b0000000000000000000000000000000000000000000000000000000001000101 System2.Top.Counter.Low
#2189195
r-0.893799 System2.FRDM.Sensors.Accelerometer.AccX
r-0.106201 System2.FRDM.Sensors.Accelerometer.AccY
r-0.245850 System2.FRDM.Sensors.Accelerometer.AccZ
b0000000000000000000000000000000000000000000000000000000001001000 System2.Top.Counter.High
b0000000000000000000000000000000000000000000000000000000001000110 System2.Top.Counter.Low
#3147604
r0.984146 System2.FRDM.Sensors.Light
b0000000000000000000000000000000000000000000000000000000001001001 System2.Top.Counter.High
b0000000000000000000000000000000000000000000000000000000001001001 System2.Top.Counter.Low
#3150149
b00000000000000001111110100001011 System2.FRDM.Sensors.Magnetometer.MagX
b0000000000000000000000000000000000000000000000000000000001001010 System2.Top.Counter.High
b0000000000000000000000000000000000000000000000000000000001001010 System2.Top.Counter.Low
#3150273
b00000000000000000000000001110110 System2.FRDM.Sensors.Magnetometer.MagY
b0000000000000000000000000000000000000000000000000000000001001011 System2.Top.Counter.High
b0000000000000000000000000000000000000000000000000000000001001011 System2.Top.Counter.Low
#3150394
b00000000000000000000101011100100 System2.FRDM.Sensors.Magnetometer.MagZ
b0000000000000000000000000000000000000000000000000000000001001100 System2.Top.Counter.High
b0000000000000000000000000000000000000000000000000000000001001100 System2.Top.Counter.Low
#4069872
r-0.975830 System2.FRDM.Sensors.Accelerometer.AccX
r-0.101807 System2.FRDM.Sensors.Accelerometer.AccY
r-0.198486 System2.FRDM.Sensors.Accelerometer.AccZ
b0000000000000000000000000000000000000000000000000000000001001111 System2.Top.Counter.High
b0000000000000000000000000000000000000000000000000000000001001101 System2.Top.Counter.Low
#4107581
b0000000000000000000000000000000000000000000000000000000001010000 System2.Top.Counter.High
b0000000000000000000000000000000000000000000000000000000001010000 System2.Top.Counter.Low
#5597605
r0.984482 System2.FRDM.Sensors.Light
b0000000000000000000000000000000000000000000000000000000001010001 System2.Top.Counter.High
b0000000000000000000000000000000000000000000000000000000001010001 System2.Top.Counter.Low
#5600142
b00000000000000001111110100001000 System2.FRDM.Sensors.Magnetometer.MagX
b0000000000000000000000000000000000000000000000000000000001010010 System2.Top.Counter.High
b0000000000000000000000000000000000000000000000000000000001010010 System2.Top.Counter.Low
#5600265
b00000000000000000000000001110000 System2.FRDM.Sensors.Magnetometer.MagY
b0000000000000000000000000000000000000000000000000000000001010011 System2.Top.Counter.High
b0000000000000000000000000000000000000000000000000000000001010011 System2.Top.Counter.Low
#5600385
b00000000000000000000101011110010 System2.FRDM.Sensors.Magnetometer.MagZ
b0000000000000000000000000000000000000000000000000000000001010100 System2.Top.Counter.High
b0000000000000000000000000000000000000000000000000000000001010100 System2.Top.Counter.Low
#6029872
r-0.981201 System2.FRDM.Sensors.Accelerometer.AccX
r-0.089600 System2.FRDM.Sensors.Accelerometer.AccY
r-0.177490 System2.FRDM.Sensors.Accelerometer.AccZ
b0000000000000000000000000000000000000000000000000000000001010111 System2.Top.Counter.High
b0000000000000000000000000000000000000000000000000000000001010101 System2.Top.Counter.Low
#6067582
b0000000000000000000000000000000000000000000000000000000001011000 System2.Top.Counter.High
b0000000000000000000000000000000000000000000000000000000001011000 System2.Top.Counter.Low
#7750511
r-15106.000000 System1.Disco.Sensors.Accelerometer.AccX
b0000000000000000000000000000000000000000000000000000000000000010 System1.Top.Counter.High
b0000000000000000000000000000000000000000000000000000000000000010 System1.Top.Counter.Low
#7751055
r-465.000000 System1.Disco.Sensors.Accelerometer.AccY
b0000000000000000000000000000000000000000000000000000000000000011 System1.Top.Counter.High
b0000000000000000000000000000000000000000000000000000000000000011 System1.Top.Counter.Low
#7751544
r2590.000000 System1.Disco.Sensors.Accelerometer.AccZ
b0000000000000000000000000000000000000000000000000000000000000100 System1.Top.Counter.High
b0000000000000000000000000000000000000000000000000000000000000100 System1.Top.Counter.Low
#7790476
r-15184.000000 System1.Disco.Sensors.Accelerometer.AccX
b0000000000000000000000000000000000000000000000000000000000000101 System1.Top.Counter.High
b0000000000000000000000000000000000000000000000000000000000000101 System1.Top.Counter.Low
#7791017
r-852.000000 System1.Disco.Sensors.Accelerometer.AccY
b0000000000000000000000000000000000000000000000000000000000000110 System1.Top.Counter.High
b0000000000000000000000000000000000000000000000000000000000000110 System1.Top.Counter.Low
#7791502
r4198.000000 System1.Disco.Sensors.Accelerometer.AccZ
b0000000000000000000000000000000000000000000000000000000000000111 System1.Top.Counter.High
b0000000000000000000000000000000000000000000000000000000000000111 System1.Top.Counter.Low
#7830476
r-15314.000000 System1.Disco.Sensors.Accelerometer.AccX
b0000000000000000000000000000000000000000000000000000000000001000 System1.Top.Counter.High
b0000000000000000000000000000000000000000000000000000000000001000 System1.Top.Counter.Low
#7831023
r-135.000000 System1.Disco.Sensors.Accelerometer.AccY
b0000000000000000000000000000000000000000000000000000000000001001 System1.Top.Counter.High
b0000000000000000000000000000000000000000000000000000000000001001 System1.Top.Counter.Low
#7831515
r3034.000000 System1.Disco.Sensors.Accelerometer.AccZ
b0000000000000000000000000000000000000000000000000000000000001010 System1.Top.Counter.High
b0000000000000000000000000000000000000000000000000000000000001010 System1.Top.Counter.Low
#7870476
r-15142.000000 System1.Disco.Sensors.Accelerometer.AccX
b0000000000000000000000000000000000000000000000000000000000001011 System1.Top.Counter.High
b0000000000000000000000000000000000000000000000000000000000001011 System1.Top.Counter.Low
#7871025
r-851.000000 System1.Disco.Sensors.Accelerometer.AccY
b0000000000000000000000000000000000000000000000000000000000001100 System1.Top.Counter.High
b0000000000000000000000000000000000000000000000000000000000001100 System1.Top.Counter.Low
#7871520
r2757.000000 System1.Disco.Sensors.Accelerometer.AccZ
b0000000000000000000000000000000000000000000000000000000000001101 System1.Top.Counter.High
b0000000000000000000000000000000000000000000000000000000000001101 System1.Top.Counter.Low
#7910476
r-14551.000000 System1.Disco.Sensors.Accelerometer.AccX
b0000000000000000000000000000000000000000000000000000000000001110 System1.Top.Counter.High
b0000000000000000000000000000000000000000000000000000000000001110 System1.Top.Counter.Low
#7911022
r-151.000000 System1.Disco.Sensors.Accelerometer.AccY
b0000000000000000000000000000000000000000000000000000000000001111 System1.Top.Counter.High
b0000000000000000000000000000000000000000000000000000000000001111 System1.Top.Counter.Low
#7911513
r3209.000000 System1.Disco.Sensors.Accelerometer.AccZ
b0000000000000000000000000000000000000000000000000000000000010000 System1.Top.Counter.High
b0000000000000000000000000000000000000000000000000000000000010000 System1.Top.Counter.Low
#7950511
r-15155.000000 System1.Disco.Sensors.Accelerometer.AccX
b0000000000000000000000000000000000000000000000000000000000010001 System1.Top.Counter.High
b0000000000000000000000000000000000000000000000000000000000010001 System1.Top.Counter.Low
#7951063
r-498.000000 System1.Disco.Sensors.Accelerometer.AccY
b0000000000000000000000000000000000000000000000000000000000010010 System1.Top.Counter.High
b0000000000000000000000000000000000000000000000000000000000010010 System1.Top.Counter.Low
#7951558
r2645.000000 System1.Disco.Sensors.Accelerometer.AccZ
b0000000000000000000000000000000000000000000000000000000000010011 System1.Top.Counter.High
b0000000000000000000000000000000000000000000000000000000000010011 System1.Top.Counter.Low
#7989194
r-0.968506 System2.FRDM.Sensors.Accelerometer.AccX
r-0.099365 System2.FRDM.Sensors.Accelerometer.AccY
r-0.169678 System2.FRDM.Sensors.Accelerometer.AccZ
b0000000000000000000000000000000000000000000000000000000001011011 System2.Top.Counter.High
b0000000000000000000000000000000000000000000000000000000001011001 System2.Top.Counter.Low
#7990476
r-14795.000000 System1.Disco.Sensors.Accelerometer.AccX
b0000000000000000000000000000000000000000000000000000000000010100 System1.Top.Counter.High
b0000000000000000000000000000000000000000000000000000000000010100 System1.Top.Counter.Low
#7991016
r-373.000000 System1.Disco.Sensors.Accelerometer.AccY
b0000000000000000000000000000000000000000000000000000000000010101 System1.Top.Counter.High
b0000000000000000000000000000000000000000000000000000000000010101 System1.Top.Counter.Low
#7991503
r3017.000000 System1.Disco.Sensors.Accelerometer.AccZ
b0000000000000000000000000000000000000000000000000000000000010110 System1.Top.Counter.High
b0000000000000000000000000000000000000000000000000000000000010110 System1.Top.Counter.Low
#8027581
b0000000000000000000000000000000000000000000000000000000001011100 System2.Top.Counter.High
b0000000000000000000000000000000000000000000000000000000001011100 System2.Top.Counter.Low
#8047604
b0000000000000000000000000000000000000000000000000000000001011101 System2.Top.Counter.High
b0000000000000000000000000000000000000000000000000000000001011101 System2.Top.Counter.Low
#8050128
b00000000000000001111110100001001 System2.FRDM.Sensors.Magnetometer.MagX
b0000000000000000000000000000000000000000000000000000000001011110 System2.Top.Counter.High
b0000000000000000000000000000000000000000000000000000000001011110 System2.Top.Counter.Low
#8050252
b00000000000000000000000001110011 System2.FRDM.Sensors.Magnetometer.MagY
b0000000000000000000000000000000000000000000000000000000001011111 System2.Top.Counter.High
b0000000000000000000000000000000000000000000000000000000001011111 System2.Top.Counter.Low
#8050372
b00000000000000000000101011110001 System2.FRDM.Sensors.Magnetometer.MagZ
b0000000000000000000000000000000000000000000000000000000001100000 System2.Top.Counter.High
b0000000000000000000000000000000000000000000000000000000001100000 System2.Top.Counter.Low
#8070476
r-14751.000000 System1.Disco.Sensors.Accelerometer.AccX
b0000000000000000000000000000000000000000000000000000000000010111 System1.Top.Counter.High
b0000000000000000000000000000000000000000000000000000000000010111 System1.Top.Counter.Low
#8071020
r-323.000000 System1.Disco.Sensors.Accelerometer.AccY
b0000000000000000000000000000000000000000000000000000000000011000 System1.Top.Counter.High
b0000000000000000000000000000000000000000000000000000000000011000 System1.Top.Counter.Low
#8071513
r3451.000000 System1.Disco.Sensors.Accelerometer.AccZ
b0000000000000000000000000000000000000000000000000000000000011001 System1.Top.Counter.High
b0000000000000000000000000000000000000000000000000000000000011001 System1.Top.Counter.Low
#8150511
r-14839.000000 System1.Disco.Sensors.Accelerometer.AccX
b0000000000000000000000000000000000000000000000000000000000011010 System1.Top.Counter.High
b0000000000000000000000000000000000000000000000000000000000011010 System1.Top.Counter.Low
#8151054
r-463.000000 System1.Disco.Sensors.Accelerometer.AccY
b0000000000000000000000000000000000000000000000000000000000011011 System1.Top.Counter.High
b0000000000000000000000000000000000000000000000000000000000011011 System1.Top.Counter.Low
#8151546
r3248.000000 System1.Disco.Sensors.Accelerometer.AccZ
b0000000000000000000000000000000000000000000000000000000000011100 System1.Top.Counter.High
b0000000000000000000000000000000000000000000000000000000000011100 System1.Top.Counter.Low
#8190476
r-15115.000000 System1.Disco.Sensors.Accelerometer.AccX
b0000000000000000000000000000000000000000000000000000000000011101 System1.Top.Counter.High
b0000000000000000000000000000000000000000000000000000000000011101 System1.Top.Counter.Low
#8191024
r-65.000000 System1.Disco.Sensors.Accelerometer.AccY
b0000000000000000000000000000000000000000000000000000000000011110 System1.Top.Counter.High
b0000000000000000000000000000000000000000000000000000000000011110 System1.Top.Counter.Low
#8191490
r3181.000000 System1.Disco.Sensors.Accelerometer.AccZ
b0000000000000000000000000000000000000000000000000000000000011111 System1.Top.Counter.High
b0000000000000000000000000000000000000000000000000000000000011111 System1.Top.Counter.Low
#8230476
r-15087.000000 System1.Disco.Sensors.Accelerometer.AccX
b0000000000000000000000000000000000000000000000000000000000100000 System1.Top.Counter.High
b0000000000000000000000000000000000000000000000000000000000100000 System1.Top.Counter.Low
#8231026
r-367.000000 System1.Disco.Sensors.Accelerometer.AccY
b0000000000000000000000000000000000000000000000000000000000100001 System1.Top.Counter.High
b0000000000000000000000000000000000000000000000000000000000100001 System1.Top.Counter.Low
#8231524
r3227.000000 System1.Disco.Sensors.Accelerometer.AccZ
b0000000000000000000000000000000000000000000000000000000000100010 System1.Top.Counter.High
b0000000000000000000000000000000000000000000000000000000000100010 System1.Top.Counter.Low
#8270476
r-14984.000000 System1.Disco.Sensors.Accelerometer.AccX
b0000000000000000000000000000000000000000000000000000000000100011 System1.Top.Counter.High
b0000000000000000000000000000000000000000000000000000000000100011 System1.Top.Counter.Low
#8271019
r-597.000000 System1.Disco.Sensors.Accelerometer.AccY
b0000000000000000000000000000000000000000000000000000000000100100 System1.Top.Counter.High
b0000000000000000000000000000000000000000000000000000000000100100 System1.Top.Counter.Low
#8271514
r3418.000000 System1.Disco.Sensors.Accelerometer.AccZ
b0000000000000000000000000000000000000000000000000000000000100101 System1.Top.Counter.High
b0000000000000000000000000000000000000000000000000000000000100101 System1.Top.Counter.Low
#8350511
r-14952.000000 System1.Disco.Sensors.Accelerometer.AccX
b0000000000000000000000000000000000000000000000000000000000100110 System1.Top.Counter.High
b0000000000000000000000000000000000000000000000000000000000100110 System1.Top.Counter.Low
#8351053
r-570.000000 System1.Disco.Sensors.Accelerometer.AccY
b0000000000000000000000000000000000000000000000000000000000100111 System1.Top.Counter.High
b0000000000000000000000000000000000000000000000000000000000100111 System1.Top.Counter.Low
#8351544
r3164.000000 System1.Disco.Sensors.Accelerometer.AccZ
b0000000000000000000000000000000000000000000000000000000000101000 System1.Top.Counter.High
b0000000000000000000000000000000000000000000000000000000000101000 System1.Top.Counter.Low
#8390476
r-14590.000000 System1.Disco.Sensors.Accelerometer.AccX
b0000000000000000000000000000000000000000000000000000000000101001 System1.Top.Counter.High
b0000000000000000000000000000000000000000000000000000000000101001 System1.Top.Counter.Low
#8391021
r259.000000 System1.Disco.Sensors.Accelerometer.AccY
b0000000000000000000000000000000000000000000000000000000000101010 System1.Top.Counter.High
b0000000000000000000000000000000000000000000000000000000000101010 System1.Top.Counter.Low
#8391512
r3400.000000 System1.Disco.Sensors.Accelerometer.AccZ
b0000000000000000000000000000000000000000000000000000000000101011 System1.Top.Counter.High
b0000000000000000000000000000000000000000000000000000000000101011 System1.Top.Counter.Low
#8430476
r-15286.000000 System1.Disco.Sensors.Accelerometer.AccX
b0000000000000000000000000000000000000000000000000000000000101100 System1.Top.Counter.High
b0000000000000000000000000000000000000000000000000000000000101100 System1.Top.Counter.Low
#8431025
r-93.000000 System1.Disco.Sensors.Accelerometer.AccY
b0000000000000000000000000000000000000000000000000000000000101101 System1.Top.Counter.High
b0000000000000000000000000000000000000000000000000000000000101101 System1.Top.Counter.Low
#8431491
r3053.000000 System1.Disco.Sensors.Accelerometer.AccZ
b0000000000000000000000000000000000000000000000000000000000101110 System1.Top.Counter.High
b0000000000000000000000000000000000000000000000000000000000101110 System1.Top.Counter.Low
#8470476
r-15057.000000 System1.Disco.Sensors.Accelerometer.AccX
b0000000000000000000000000000000000000000000000000000000000101111 System1.Top.Counter.High
b0000000000000000000000000000000000000000000000000000000000101111 System1.Top.Counter.Low
#8471023
r-269.000000 System1.Disco.Sensors.Accelerometer.AccY
b0000000000000000000000000000000000000000000000000000000000110000 System1.Top.Counter.High
b0000000000000000000000000000000000000000000000000000000000110000 System1.Top.Counter.Low
#8471513
r3083.000000 System1.Disco.Sensors.Accelerometer.AccZ
b0000000000000000000000000000000000000000000000000000000000110001 System1.Top.Counter.High
b0000000000000000000000000000000000000000000000000000000000110001 System1.Top.Counter.Low
#8510476
r-15113.000000 System1.Disco.Sensors.Accelerometer.AccX
b0000000000000000000000000000000000000000000000000000000000110010 System1.Top.Counter.High
b0000000000000000000000000000000000000000000000000000000000110010 System1.Top.Counter.Low
#8511022
r128.000000 System1.Disco.Sensors.Accelerometer.AccY
b0000000000000000000000000000000000000000000000000000000000110011 System1.Top.Counter.High
b0000000000000000000000000000000000000000000000000000000000110011 System1.Top.Counter.Low
