sources/vcdMerge/test/functional/test1_us.vcd
$date Tue Dec 18 17:57:25 2018
$end
$version VCD Tracer "Nestor" Release v.3.0.2
$end
$timescale 1 us
$end
$scope module System1 $end
	$scope module Disco $end
		$scope module Buttons $end
			$var wire 1 System1.Disco.Buttons.Center Center $end
			$var wire 1 System1.Disco.Buttons.Down Down $end
			$var wire 1 System1.Disco.Buttons.Left Left $end
			$var wire 1 System1.Disco.Buttons.Right Right $end
			$var wire 1 System1.Disco.Buttons.Up Up $end
		$upscope $end
		$scope module Sensors $end
			$scope module Accelerometer $end
				$var real 64 System1.Disco.Sensors.Accelerometer.AccX AccX $end
				$var real 64 System1.Disco.Sensors.Accelerometer.AccY AccY $end
				$var real 64 System1.Disco.Sensors.Accelerometer.AccZ AccZ $end
			$upscope $end
			$scope module Magnetometer $end
				$var real 64 System1.Disco.Sensors.Magnetometer.MagX MagX $end
				$var real 64 System1.Disco.Sensors.Magnetometer.MagY MagY $end
				$var real 64 System1.Disco.Sensors.Magnetometer.MagZ MagZ $end
			$upscope $end
		$upscope $end
		$var event 0 System1.Disco.Sync Sync $end
	$upscope $end
	$scope module Top $end
		$scope module Counter $end
			$var wire 64 System1.Top.Counter.High High $end
			$var wire 64 System1.Top.Counter.Low Low $end
		$upscope $end
	$upscope $end
$upscope $end
$scope module System2 $end
	$scope module FRDM $end
		$scope module Buttons $end
			$var wire 1 System2.FRDM.Buttons.SW1 SW1 $end
			$var wire 1 System2.FRDM.Buttons.SW3 SW3 $end
		$upscope $end
		$scope module Sensors $end
			$scope module Accelerometer $end
				$var real 64 System2.FRDM.Sensors.Accelerometer.AccX AccX $end
				$var real 64 System2.FRDM.Sensors.Accelerometer.AccY AccY $end
				$var real 64 System2.FRDM.Sensors.Accelerometer.AccZ AccZ $end
			$upscope $end
			$var real 64 System2.FRDM.Sensors.Light Light $end
			$scope module Magnetometer $end
				$var wire 32 System2.FRDM.Sensors.Magnetometer.MagX MagX $end
				$var wire 32 System2.FRDM.Sensors.Magnetometer.MagY MagY $end
				$var wire 32 System2.FRDM.Sensors.Magnetometer.MagZ MagZ $end
			$upscope $end
			$var wire 7 System2.FRDM.Sensors.Slider Slider $end
		$upscope $end
		$var event 0 System2.FRDM.Sync Sync $end
	$upscope $end
	$scope module Top $end
		$scope module Counter $end
			$var wire 64 System2.Top.Counter.High High $end
			$var wire 64 System2.Top.Counter.Low Low $end
		$upscope $end
	$upscope $end
$upscope $end
$enddefinitions $end
$dumpvars
bx System1.Disco.Buttons.Center
bx System1.Disco.Buttons.Down
bx System1.Disco.Buttons.Left
bx System1.Disco.Buttons.Right
bx System1.Disco.Buttons.Up
r0.0 System1.Disco.Sensors.Accelerometer.AccX
r0.0 System1.Disco.Sensors.Accelerometer.AccY
r0.0 System1.Disco.Sensors.Accelerometer.AccZ
r0.0 System1.Disco.Sensors.Magnetometer.MagX
r0.0 System1.Disco.Sensors.Magnetometer.MagY
r0.0 System1.Disco.Sensors.Magnetometer.MagZ
bxxxxxxxxxxxxxxxxxxxxxxxxxxxxxxxxxxxxxxxxxxxxxxxxxxxxxxxxxxxxxxxx System1.Top.Counter.High
bxxxxxxxxxxxxxxxxxxxxxxxxxxxxxxxxxxxxxxxxxxxxxxxxxxxxxxxxxxxxxxxx System1.Top.Counter.Low
bx System2.FRDM.Buttons.SW1
bx System2.FRDM.Buttons.SW3
r0.0 System2.FRDM.Sensors.Accelerometer.AccX
r0.0 System2.FRDM.Sensors.Accelerometer.AccY
r0.0 System2.FRDM.Sensors.Accelerometer.AccZ
r0.0 System2.FRDM.Sensors.Light
bxxxxxxxxxxxxxxxxxxxxxxxxxxxxxxxx System2.FRDM.Sensors.Magnetometer.MagX
bxxxxxxxxxxxxxxxxxxxxxxxxxxxxxxxx System2.FRDM.Sensors.Magnetometer.MagY
bxxxxxxxxxxxxxxxxxxxxxxxxxxxxxxxx System2.FRDM.Sensors.Magnetometer.MagZ
bxxxxxxx System2.FRDM.Sensors.Slider
bxxxxxxxxxxxxxxxxxxxxxxxxxxxxxxxxxxxxxxxxxxxxxxxxxxxxxxxxxxxxxxxx System2.Top.Counter.High
bxxxxxxxxxxxxxxxxxxxxxxxxxxxxxxxxxxxxxxxxxxxxxxxxxxxxxxxxxxxxxxxx System2.Top.Counter.Low
$end
#15050214
b00000000000000001111110011100111 System2.FRDM.Sensors.Magnetometer.MagX
b0000000000000000000000000000000000000000000000000000000000000001 System2.Top.Counter.High
b0000000000000000000000000000000000000000000000000000000000000001 System2.Top.Counter.Low
#15050338
b00000000000000000000000010010000 System2.FRDM.Sensors.Magnetometer.MagY
b0000000000000000000000000000000000000000000000000000000000000010 System2.Top.Counter.High
b0000000000000000000000000000000000000000000000000000000000000010 System2.Top.Counter.Low
#15050458
b00000000000000000000101111110101 System2.FRDM.Sensors.Magnetometer.MagZ
b0000000000000000000000000000000000000000000000000000000000000011 System2.Top.Counter.High
b0000000000000000000000000000000000000000000000000000000000000011 System2.Top.Counter.Low
#15202582
r-0.833252 System2.FRDM.Sensors.Accelerometer.AccX
r-0.020264 System2.FRDM.Sensors.Accelerometer.AccY
r0.561035 System2.FRDM.Sensors.Accelerometer.AccZ
b0000000000000000000000000000000000000000000000000000000000000110 System2.Top.Counter.High
b0000000000000000000000000000000000000000000000000000000000000100 System2.Top.Counter.Low
#15237795
b0000000 System2.FRDM.Sensors.Slider
b0000000000000000000000000000000000000000000000000000000000000111 System2.Top.Counter.High
b0000000000000000000000000000000000000000000000000000000000000111 System2.Top.Counter.Low
#15747818
r0.978454 System2.FRDM.Sensors.Light
b0000000000000000000000000000000000000000000000000000000000001000 System2.Top.Counter.High
b0000000000000000000000000000000000000000000000000000000000001000 System2.Top.Counter.Low
#15750348
b00000000000000001111110100000010 System2.FRDM.Sensors.Magnetometer.MagX
b0000000000000000000000000000000000000000000000000000000000001001 System2.Top.Counter.High
b0000000000000000000000000000000000000000000000000000000000001001 System2.Top.Counter.Low
#15750472
b00000000000000000000000001110000 System2.FRDM.Sensors.Magnetometer.MagY
b0000000000000000000000000000000000000000000000000000000000001010 System2.Top.Counter.High
b0000000000000000000000000000000000000000000000000000000000001010 System2.Top.Counter.Low
#15750592
b00000000000000000000101111100111 System2.FRDM.Sensors.Magnetometer.MagZ
b0000000000000000000000000000000000000000000000000000000000001011 System2.Top.Counter.High
b0000000000000000000000000000000000000000000000000000000000001011 System2.Top.Counter.Low
#15880091
r-0.899658 System2.FRDM.Sensors.Accelerometer.AccX
r-0.063721 System2.FRDM.Sensors.Accelerometer.AccY
r0.412598 System2.FRDM.Sensors.Accelerometer.AccZ
b0000000000000000000000000000000000000000000000000000000000001110 System2.Top.Counter.High
b0000000000000000000000000000000000000000000000000000000000001100 System2.Top.Counter.Low
#15950189
b00000000000000001111110100001101 System2.FRDM.Sensors.Magnetometer.MagX
b0000000000000000000000000000000000000000000000000000000000001111 System2.Top.Counter.High
b0000000000000000000000000000000000000000000000000000000000001111 System2.Top.Counter.Low
#15950312
b00000000000000000000000001011100 System2.FRDM.Sensors.Magnetometer.MagY
b0000000000000000000000000000000000000000000000000000000000010000 System2.Top.Counter.High
b0000000000000000000000000000000000000000000000000000000000010000 System2.Top.Counter.Low
#15950431
b00000000000000000000101110100110 System2.FRDM.Sensors.Magnetometer.MagZ
b0000000000000000000000000000000000000000000000000000000000010001 System2.Top.Counter.High
b0000000000000000000000000000000000000000000000000000000000010001 System2.Top.Counter.Low
#16039413
r-0.955322 System2.FRDM.Sensors.Accelerometer.AccX
r-0.087158 System2.FRDM.Sensors.Accelerometer.AccY
r0.238770 System2.FRDM.Sensors.Accelerometer.AccZ
b0000000000000000000000000000000000000000000000000000000000010100 System2.Top.Counter.High
b0000000000000000000000000000000000000000000000000000000000010010 System2.Top.Counter.Low
#16100189
b00000000000000001111110100010100 System2.FRDM.Sensors.Magnetometer.MagX
b0000000000000000000000000000000000000000000000000000000000010101 System2.Top.Counter.High
b0000000000000000000000000000000000000000000000000000000000010101 System2.Top.Counter.Low
#16100313
b00000000000000000000000001011001 System2.FRDM.Sensors.Magnetometer.MagY
b0000000000000000000000000000000000000000000000000000000000010110 System2.Top.Counter.High
b0000000000000000000000000000000000000000000000000000000000010110 System2.Top.Counter.Low
#16100432
b00000000000000000000101101110000 System2.FRDM.Sensors.Magnetometer.MagZ
b0000000000000000000000000000000000000000000000000000000000010111 System2.Top.Counter.High
b0000000000000000000000000000000000000000000000000000000000010111 System2.Top.Counter.Low
#16202583
r-0.983154 System2.FRDM.Sensors.Accelerometer.AccX
r-0.140381 System2.FRDM.Sensors.Accelerometer.AccY
r0.113770 System2.FRDM.Sensors.Accelerometer.AccZ
b0000000000000000000000000000000000000000000000000000000000011010 System2.Top.Counter.High
b0000000000000000000000000000000000000000000000000000000000011000 System2.Top.Counter.Low
#16280091
r-0.970947 System2.FRDM.Sensors.Accelerometer.AccX
r-0.129639 System2.FRDM.Sensors.Accelerometer.AccY
r-0.027588 System2.FRDM.Sensors.Accelerometer.AccZ
b0000000000000000000000000000000000000000000000000000000000011101 System2.Top.Counter.High
b0000000000000000000000000000000000000000000000000000000000011011 System2.Top.Counter.Low
#16300257
b00000000000000001111110100011011 System2.FRDM.Sensors.Magnetometer.MagX
b0000000000000000000000000000000000000000000000000000000000011110 System2.Top.Counter.High
b0000000000000000000000000000000000000000000000000000000000011110 System2.Top.Counter.Low
#16300380
b00000000000000000000000001011011 System2.FRDM.Sensors.Magnetometer.MagY
b0000000000000000000000000000000000000000000000000000000000011111 System2.Top.Counter.High
b0000000000000000000000000000000000000000000000000000000000011111 System2.Top.Counter.Low
#16300499
b00000000000000000000101100111011 System2.FRDM.Sensors.Magnetometer.MagZ
b0000000000000000000000000000000000000000000000000000000000100000 System2.Top.Counter.High
b0000000000000000000000000000000000000000000000000000000000100000 System2.Top.Counter.Low
#16360089
r-1.140381 System2.FRDM.Sensors.Accelerometer.AccX
r-0.163818 System2.FRDM.Sensors.Accelerometer.AccY
r-0.020752 System2.FRDM.Sensors.Accelerometer.AccZ
b0000000000000000000000000000000000000000000000000000000000100011 System2.Top.Counter.High
b0000000000000000000000000000000000000000000000000000000000100001 System2.Top.Counter.Low
#16402503
r-0.851318 System2.FRDM.Sensors.Accelerometer.AccX
r-0.171631 System2.FRDM.Sensors.Accelerometer.AccY
r-0.072998 System2.FRDM.Sensors.Accelerometer.AccZ
b0000000000000000000000000000000000000000000000000000000000100110 System2.Top.Counter.High
b0000000000000000000000000000000000000000000000000000000000100100 System2.Top.Counter.Low
#16439409
r-0.962646 System2.FRDM.Sensors.Accelerometer.AccX
r-0.179443 System2.FRDM.Sensors.Accelerometer.AccY
r-0.218018 System2.FRDM.Sensors.Accelerometer.AccZ
b0000000000000000000000000000000000000000000000000000000000101001 System2.Top.Counter.High
b0000000000000000000000000000000000000000000000000000000000100111 System2.Top.Counter.Low
#16500216
b00000000000000001111110100101000 System2.FRDM.Sensors.Magnetometer.MagX
b0000000000000000000000000000000000000000000000000000000000101010 System2.Top.Counter.High
b0000000000000000000000000000000000000000000000000000000000101010 System2.Top.Counter.Low
#16500339
b00000000000000000000000001101110 System2.FRDM.Sensors.Magnetometer.MagY
b0000000000000000000000000000000000000000000000000000000000101011 System2.Top.Counter.High
b0000000000000000000000000000000000000000000000000000000000101011 System2.Top.Counter.Low
#16500460
b00000000000000000000101011110100 System2.FRDM.Sensors.Magnetometer.MagZ
b0000000000000000000000000000000000000000000000000000000000101100 System2.Top.Counter.High
b0000000000000000000000000000000000000000000000000000000000101100 System2.Top.Counter.Low
#16520089
r-0.848877 System2.FRDM.Sensors.Accelerometer.AccX
r-0.191650 System2.FRDM.Sensors.Accelerometer.AccY
r-0.209717 System2.FRDM.Sensors.Accelerometer.AccZ
b0000000000000000000000000000000000000000000000000000000000101111 System2.Top.Counter.High
b0000000000000000000000000000000000000000000000000000000000101101 System2.Top.Counter.Low
#16560088
r-0.968994 System2.FRDM.Sensors.Accelerometer.AccX
r-0.178467 System2.FRDM.Sensors.Accelerometer.AccY
r-0.198486 System2.FRDM.Sensors.Accelerometer.AccZ
b0000000000000000000000000000000000000000000000000000000000110010 System2.Top.Counter.High
b0000000000000000000000000000000000000000000000000000000000110000 System2.Top.Counter.Low
#16602534
r-0.935303 System2.FRDM.Sensors.Accelerometer.AccX
r-0.198486 System2.FRDM.Sensors.Accelerometer.AccY
r-0.359619 System2.FRDM.Sensors.Accelerometer.AccZ
b0000000000000000000000000000000000000000000000000000000000110101 System2.Top.Counter.High
b0000000000000000000000000000000000000000000000000000000000110011 System2.Top.Counter.Low
#16680093
r-0.943115 System2.FRDM.Sensors.Accelerometer.AccX
r-0.172607 System2.FRDM.Sensors.Accelerometer.AccY
r-0.251221 System2.FRDM.Sensors.Accelerometer.AccZ
b0000000000000000000000000000000000000000000000000000000000111000 System2.Top.Counter.High
b0000000000000000000000000000000000000000000000000000000000110110 System2.Top.Counter.Low
#16839411
r-1.002686 System2.FRDM.Sensors.Accelerometer.AccX
r-0.043213 System2.FRDM.Sensors.Accelerometer.AccY
r-0.306396 System2.FRDM.Sensors.Accelerometer.AccZ
b0000000000000000000000000000000000000000000000000000000000111011 System2.Top.Counter.High
b0000000000000000000000000000000000000000000000000000000000111001 System2.Top.Counter.Low
#16960090
r-0.906006 System2.FRDM.Sensors.Accelerometer.AccX
r-0.161865 System2.FRDM.Sensors.Accelerometer.AccY
r-0.425049 System2.FRDM.Sensors.Accelerometer.AccZ
b0000000000000000000000000000000000000000000000000000000000111110 System2.Top.Counter.High
b0000000000000000000000000000000000000000000000000000000000111100 System2.Top.Counter.Low
#17039413
r-0.989014 System2.FRDM.Sensors.Accelerometer.AccX
r-0.109131 System2.FRDM.Sensors.Accelerometer.AccY
r-0.187256 System2.FRDM.Sensors.Accelerometer.AccZ
b0000000000000000000000000000000000000000000000000000000001000001 System2.Top.Counter.High
b0000000000000000000000000000000000000000000000000000000000111111 System2.Top.Counter.Low
#17160086
r-0.996338 System2.FRDM.Sensors.Accelerometer.AccX
r-0.072510 System2.FRDM.Sensors.Accelerometer.AccY
r-0.267334 System2.FRDM.Sensors.Accelerometer.AccZ
b0000000000000000000000000000000000000000000000000000000001000100 System2.Top.Counter.High
b0000000000000000000000000000000000000000000000000000000001000010 System2.Top.Counter.Low
#17200243
b0000000000000000000000000000000000000000000000000000000001000101 System2.Top.Counter.High
b0000000000000000000000000000000000000000000000000000000001000101 System2.Top.Counter.Low
#17239409
r-0.893799 System2.FRDM.Sensors.Accelerometer.AccX
r-0.106201 System2.FRDM.Sensors.Accelerometer.AccY
r-0.245850 System2.FRDM.Sensors.Accelerometer.AccZ
b0000000000000000000000000000000000000000000000000000000001001000 System2.Top.Counter.High
b0000000000000000000000000000000000000000000000000000000001000110 System2.Top.Counter.Low
#18197818
r0.984146 System2.FRDM.Sensors.Light
b0000000000000000000000000000000000000000000000000000000001001001 System2.Top.Counter.High
b0000000000000000000000000000000000000000000000000000000001001001 System2.Top.Counter.Low
#18200363
b00000000000000001111110100001011 System2.FRDM.Sensors.Magnetometer.MagX
b0000000000000000000000000000000000000000000000000000000001001010 System2.Top.Counter.High
b0000000000000000000000000000000000000000000000000000000001001010 System2.Top.Counter.Low
#18200487
b00000000000000000000000001110110 System2.FRDM.Sensors.Magnetometer.MagY
b0000000000000000000000000000000000000000000000000000000001001011 System2.Top.Counter.High
b0000000000000000000000000000000000000000000000000000000001001011 System2.Top.Counter.Low
#18200608
b00000000000000000000101011100100 System2.FRDM.Sensors.Magnetometer.MagZ
b0000000000000000000000000000000000000000000000000000000001001100 System2.Top.Counter.High
b0000000000000000000000000000000000000000000000000000000001001100 System2.Top.Counter.Low
#19120086
r-0.975830 System2.FRDM.Sensors.Accelerometer.AccX
r-0.101807 System2.FRDM.Sensors.Accelerometer.AccY
r-0.198486 System2.FRDM.Sensors.Accelerometer.AccZ
b0000000000000000000000000000000000000000000000000000000001001111 System2.Top.Counter.High
b0000000000000000000000000000000000000000000000000000000001001101 System2.Top.Counter.Low
#19157795
b0000000000000000000000000000000000000000000000000000000001010000 System2.Top.Counter.High
b0000000000000000000000000000000000000000000000000000000001010000 System2.Top.Counter.Low
#20647819
r0.984482 System2.FRDM.Sensors.Light
b0000000000000000000000000000000000000000000000000000000001010001 System2.Top.Counter.High
b0000000000000000000000000000000000000000000000000000000001010001 System2.Top.Counter.Low
#20650356
b00000000000000001111110100001000 System2.FRDM.Sensors.Magnetometer.MagX
b0000000000000000000000000000000000000000000000000000000001010010 System2.Top.Counter.High
b0000000000000000000000000000000000000000000000000000000001010010 System2.Top.Counter.Low
#20650479
b00000000000000000000000001110000 System2.FRDM.Sensors.Magnetometer.MagY
b0000000000000000000000000000000000000000000000000000000001010011 System2.Top.Counter.High
b0000000000000000000000000000000000000000000000000000000001010011 System2.Top.Counter.Low
#20650599
b00000000000000000000101011110010 System2.FRDM.Sensors.Magnetometer.MagZ
b0000000000000000000000000000000000000000000000000000000001010100 System2.Top.Counter.High
b0000000000000000000000000000000000000000000000000000000001010100 System2.Top.Counter.Low
#21080086
r-0.981201 System2.FRDM.Sensors.Accelerometer.AccX
r-0.089600 System2.FRDM.Sensors.Accelerometer.AccY
r-0.177490 System2.FRDM.Sensors.Accelerometer.AccZ
b0000000000000000000000000000000000000000000000000000000001010111 System2.Top.Counter.High
b0000000000000000000000000000000000000000000000000000000001010101 System2.Top.Counter.Low
#21117796
b0000000000000000000000000000000000000000000000000000000001011000 System2.Top.Counter.High
b0000000000000000000000000000000000000000000000000000000001011000 System2.Top.Counter.Low
#22800725
r-15106.000000 System1.Disco.Sensors.Accelerometer.AccX
b0000000000000000000000000000000000000000000000000000000000000010 System1.Top.Counter.High
b0000000000000000000000000000000000000000000000000000000000000010 System1.Top.Counter.Low
#22801269
r-465.000000 System1.Disco.Sensors.Accelerometer.AccY
b0000000000000000000000000000000000000000000000000000000000000011 System1.Top.Counter.High
b0000000000000000000000000000000000000000000000000000000000000011 System1.Top.Counter.Low
#22801758
r2590.000000 System1.Disco.Sensors.Accelerometer.AccZ
b0000000000000000000000000000000000000000000000000000000000000100 System1.Top.Counter.High
b0000000000000000000000000000000000000000000000000000000000000100 System1.Top.Counter.Low
#22840690
r-15184.000000 System1.Disco.Sensors.Accelerometer.AccX
b0000000000000000000000000000000000000000000000000000000000000101 System1.Top.Counter.High
b0000000000000000000000000000000000000000000000000000000000000101 System1.Top.Counter.Low
#22841231
r-852.000000 System1.Disco.Sensors.Accelerometer.AccY
b0000000000000000000000000000000000000000000000000000000000000110 System1.Top.Counter.High
b0000000000000000000000000000000000000000000000000000000000000110 System1.Top.Counter.Low
#22841716
r4198.000000 System1.Disco.Sensors.Accelerometer.AccZ
b0000000000000000000000000000000000000000000000000000000000000111 System1.Top.Counter.High
b0000000000000000000000000000000000000000000000000000000000000111 System1.Top.Counter.Low
#22880690
r-15314.000000 System1.Disco.Sensors.Accelerometer.AccX
b0000000000000000000000000000000000000000000000000000000000001000 System1.Top.Counter.High
b0000000000000000000000000000000000000000000000000000000000001000 System1.Top.Counter.Low
#22881237
r-135.000000 System1.Disco.Sensors.Accelerometer.AccY
b0000000000000000000000000000000000000000000000000000000000001001 System1.Top.Counter.High
b0000000000000000000000000000000000000000000000000000000000001001 System1.Top.Counter.Low
#22881729
r3034.000000 System1.Disco.Sensors.Accelerometer.AccZ
b0000000000000000000000000000000000000000000000000000000000001010 System1.Top.Counter.High
b0000000000000000000000000000000000000000000000000000000000001010 System1.Top.Counter.Low
#22920690
r-15142.000000 System1.Disco.Sensors.Accelerometer.AccX
b0000000000000000000000000000000000000000000000000000000000001011 System1.Top.Counter.High
b0000000000000000000000000000000000000000000000000000000000001011 System1.Top.Counter.Low
#22921239
r-851.000000 System1.Disco.Sensors.Accelerometer.AccY
b0000000000000000000000000000000000000000000000000000000000001100 System1.Top.Counter.High
b0000000000000000000000000000000000000000000000000000000000001100 System1.Top.Counter.Low
#22921734
r2757.000000 System1.Disco.Sensors.Accelerometer.AccZ
b0000000000000000000000000000000000000000000000000000000000001101 System1.Top.Counter.High
b0000000000000000000000000000000000000000000000000000000000001101 System1.Top.Counter.Low
#22960690
r-14551.000000 System1.Disco.Sensors.Accelerometer.AccX
b0000000000000000000000000000000000000000000000000000000000001110 System1.Top.Counter.High
b0000000000000000000000000000000000000000000000000000000000001110 System1.Top.Counter.Low
#22961236
r-151.000000 System1.Disco.Sensors.Accelerometer.AccY
b0000000000000000000000000000000000000000000000000000000000001111 System1.Top.Counter.High
b0000000000000000000000000000000000000000000000000000000000001111 System1.Top.Counter.Low
#22961727
r3209.000000 System1.Disco.Sensors.Accelerometer.AccZ
b0000000000000000000000000000000000000000000000000000000000010000 System1.Top.Counter.High
b0000000000000000000000000000000000000000000000000000000000010000 System1.Top.Counter.Low
#23000725
r-15155.000000 System1.Disco.Sensors.Accelerometer.AccX
b0000000000000000000000000000000000000000000000000000000000010001 System1.Top.Counter.High
b0000000000000000000000000000000000000000000000000000000000010001 System1.Top.Counter.Low
#23001277
r-498.000000 System1.Disco.Sensors.Accelerometer.AccY
b0000000000000000000000000000000000000000000000000000000000010010 System1.Top.Counter.High
b0000000000000000000000000000000000000000000000000000000000010010 System1.Top.Counter.Low
#23001772
r2645.000000 System1.Disco.Sensors.Accelerometer.AccZ
b0000000000000000000000000000000000000000000000000000000000010011 System1.Top.Counter.High
b0000000000000000000000000000000000000000000000000000000000010011 System1.Top.Counter.Low
#23039408
r-0.968506 System2.FRDM.Sensors.Accelerometer.AccX
r-0.099365 System2.FRDM.Sensors.Accelerometer.AccY
r-0.169678 System2.FRDM.Sensors.Accelerometer.AccZ
b0000000000000000000000000000000000000000000000000000000001011011 System2.Top.Counter.High
b0000000000000000000000000000000000000000000000000000000001011001 System2.Top.Counter.Low
#23040690
r-14795.000000 System1.Disco.Sensors.Accelerometer.AccX
b0000000000000000000000000000000000000000000000000000000000010100 System1.Top.Counter.High
b0000000000000000000000000000000000000000000000000000000000010100 System1.Top.Counter.Low
#23041230
r-373.000000 System1.Disco.Sensors.Accelerometer.AccY
b0000000000000000000000000000000000000000000000000000000000010101 System1.Top.Counter.High
b0000000000000000000000000000000000000000000000000000000000010101 System1.Top.Counter.Low
#23041717
r3017.000000 System1.Disco.Sensors.Accelerometer.AccZ
b0000000000000000000000000000000000000000000000000000000000010110 System1.Top.Counter.High
b0000000000000000000000000000000000000000000000000000000000010110 System1.Top.Counter.Low
#23077795
b0000000000000000000000000000000000000000000000000000000001011100 System2.Top.Counter.High
b0000000000000000000000000000000000000000000000000000000001011100 System2.Top.Counter.Low
#23097818
b0000000000000000000000000000000000000000000000000000000001011101 System2.Top.Counter.High
b0000000000000000000000000000000000000000000000000000000001011101 System2.Top.Counter.Low
#23100342
b00000000000000001111110100001001 System2.FRDM.Sensors.Magnetometer.MagX
b0000000000000000000000000000000000000000000000000000000001011110 System2.Top.Counter.High
b0000000000000000000000000000000000000000000000000000000001011110 System2.Top.Counter.Low
#23100466
b00000000000000000000000001110011 System2.FRDM.Sensors.Magnetometer.MagY
b0000000000000000000000000000000000000000000000000000000001011111 System2.Top.Counter.High
b0000000000000000000000000000000000000000000000000000000001011111 System2.Top.Counter.Low
#23100586
b00000000000000000000101011110001 System2.FRDM.Sensors.Magnetometer.MagZ
b0000000000000000000000000000000000000000000000000000000001100000 System2.Top.Counter.High
b0000000000000000000000000000000000000000000000000000000001100000 System2.Top.Counter.Low
#23120690
r-14751.000000 System1.Disco.Sensors.Accelerometer.AccX
b0000000000000000000000000000000000000000000000000000000000010111 System1.Top.Counter.High
b0000000000000000000000000000000000000000000000000000000000010111 System1.Top.Counter.Low
#23121234
r-323.000000 System1.Disco.Sensors.Accelerometer.AccY
b0000000000000000000000000000000000000000000000000000000000011000 System1.Top.Counter.High
b0000000000000000000000000000000000000000000000000000000000011000 System1.Top.Counter.Low
#23121727
r3451.000000 System1.Disco.Sensors.Accelerometer.AccZ
b0000000000000000000000000000000000000000000000000000000000011001 System1.Top.Counter.High
b0000000000000000000000000000000000000000000000000000000000011001 System1.Top.Counter.Low
#23200725
r-14839.000000 System1.Disco.Sensors.Accelerometer.AccX
b0000000000000000000000000000000000000000000000000000000000011010 System1.Top.Counter.High
b0000000000000000000000000000000000000000000000000000000000011010 System1.Top.Counter.Low
#23201268
r-463.000000 System1.Disco.Sensors.Accelerometer.AccY
b0000000000000000000000000000000000000000000000000000000000011011 System1.Top.Counter.High
b0000000000000000000000000000000000000000000000000000000000011011 System1.Top.Counter.Low
#23201760
r3248.000000 System1.Disco.Sensors.Accelerometer.AccZ
b0000000000000000000000000000000000000000000000000000000000011100 System1.Top.Counter.High
b0000000000000000000000000000000000000000000000000000000000011100 System1.Top.Counter.Low
#23240690
r-15115.000000 System1.Disco.Sensors.Accelerometer.AccX
b0000000000000000000000000000000000000000000000000000000000011101 System1.Top.Counter.High
b0000000000000000000000000000000000000000000000000000000000011101 System1.Top.Counter.Low
#23241238
r-65.000000 System1.Disco.Sensors.Accelerometer.AccY
b0000000000000000000000000000000000000000000000000000000000011110 System1.Top.Counter.High
b0000000000000000000000000000000000000000000000000000000000011110 System1.Top.Counter.Low
#23241704
r3181.000000 System1.Disco.Sensors.Accelerometer.AccZ
b0000000000000000000000000000000000000000000000000000000000011111 System1.Top.Counter.High
b0000000000000000000000000000000000000000000000000000000000011111 System1.Top.Counter.Low
#23280690
r-15087.000000 System1.Disco.Sensors.Accelerometer.AccX
b0000000000000000000000000000000000000000000000000000000000100000 System1.Top.Counter.High
b0000000000000000000000000000000000000000000000000000000000100000 System1.Top.Counter.Low
#23281240
r-367.000000 System1.Disco.Sensors.Accelerometer.AccY
b0000000000000000000000000000000000000000000000000000000000100001 System1.Top.Counter.High
b0000000000000000000000000000000000000000000000000000000000100001 System1.Top.Counter.Low
#23281738
r3227.000000 System1.Disco.Sensors.Accelerometer.AccZ
b0000000000000000000000000000000000000000000000000000000000100010 System1.Top.Counter.High
b0000000000000000000000000000000000000000000000000000000000100010 System1.Top.Counter.Low
#23320690
r-14984.000000 System1.Disco.Sensors.Accelerometer.AccX
b0000000000000000000000000000000000000000000000000000000000100011 System1.Top.Counter.High
b0000000000000000000000000000000000000000000000000000000000100011 System1.Top.Counter.Low
#23321233
r-597.000000 System1.Disco.Sensors.Accelerometer.AccY
b0000000000000000000000000000000000000000000000000000000000100100 System1.Top.Counter.High
b0000000000000000000000000000000000000000000000000000000000100100 System1.Top.Counter.Low
#23321728
r3418.000000 System1.Disco.Sensors.Accelerometer.AccZ
b0000000000000000000000000000000000000000000000000000000000100101 System1.Top.Counter.High
b0000000000000000000000000000000000000000000000000000000000100101 System1.Top.Counter.Low
#23400725
r-14952.000000 System1.Disco.Sensors.Accelerometer.AccX
b0000000000000000000000000000000000000000000000000000000000100110 System1.Top.Counter.High
b0000000000000000000000000000000000000000000000000000000000100110 System1.Top.Counter.Low
#23401267
r-570.000000 System1.Disco.Sensors.Accelerometer.AccY
b0000000000000000000000000000000000000000000000000000000000100111 System1.Top.Counter.High
b0000000000000000000000000000000000000000000000000000000000100111 System1.Top.Counter.Low
#23401758
r3164.000000 System1.Disco.Sensors.Accelerometer.AccZ
b0000000000000000000000000000000000000000000000000000000000101000 System1.Top.Counter.High
b0000000000000000000000000000000000000000000000000000000000101000 System1.Top.Counter.Low
#23440690
r-14590.000000 System1.Disco.Sensors.Accelerometer.AccX
b0000000000000000000000000000000000000000000000000000000000101001 System1.Top.Counter.High
b0000000000000000000000000000000000000000000000000000000000101001 System1.Top.Counter.Low
#23441235
r259.000000 System1.Disco.Sensors.Accelerometer.AccY
b0000000000000000000000000000000000000000000000000000000000101010 System1.Top.Counter.High
b0000000000000000000000000000000000000000000000000000000000101010 System1.Top.Counter.Low
#23441726
r3400.000000 System1.Disco.Sensors.Accelerometer.AccZ
b0000000000000000000000000000000000000000000000000000000000101011 System1.Top.Counter.High
b0000000000000000000000000000000000000000000000000000000000101011 System1.Top.Counter.Low
#23480690
r-15286.000000 System1.Disco.Sensors.Accelerometer.AccX
b0000000000000000000000000000000000000000000000000000000000101100 System1.Top.Counter.High
b0000000000000000000000000000000000000000000000000000000000101100 System1.Top.Counter.Low
#23481239
r-93.000000 System1.Disco.Sensors.Accelerometer.AccY
b0000000000000000000000000000000000000000000000000000000000101101 System1.Top.Counter.High
b0000000000000000000000000000000000000000000000000000000000101101 System1.Top.Counter.Low
#23481705
r3053.000000 System1.Disco.Sensors.Accelerometer.AccZ
b0000000000000000000000000000000000000000000000000000000000101110 System1.Top.Counter.High
b0000000000000000000000000000000000000000000000000000000000101110 System1.Top.Counter.Low
#23520690
r-15057.000000 System1.Disco.Sensors.Accelerometer.AccX
b0000000000000000000000000000000000000000000000000000000000101111 System1.Top.Counter.High
b0000000000000000000000000000000000000000000000000000000000101111 System1.Top.Counter.Low
#23521237
r-269.000000 System1.Disco.Sensors.Accelerometer.AccY
b0000000000000000000000000000000000000000000000000000000000110000 System1.Top.Counter.High
b0000000000000000000000000000000000000000000000000000000000110000 System1.Top.Counter.Low
#23521727
r3083.000000 System1.Disco.Sensors.Accelerometer.AccZ
b0000000000000000000000000000000000000000000000000000000000110001 System1.Top.Counter.High
b0000000000000000000000000000000000000000000000000000000000110001 System1.Top.Counter.Low
#23560690
r-15113.000000 System1.Disco.Sensors.Accelerometer.AccX
b0000000000000000000000000000000000000000000000000000000000110010 System1.Top.Counter.High
b0000000000000000000000000000000000000000000000000000000000110010 System1.Top.Counter.Low
#23561236
r128.000000 System1.Disco.Sensors.Accelerometer.AccY
b0000000000000000000000000000000000000000000000000000000000110011 System1.Top.Counter.High
b0000000000000000000000000000000000000000000000000000000000110011 System1.Top.Counter.Low
